Code,TS Type,PT Code,Date,Value,Fwd Period,Diff Base Roll,Year,Cont Fwd,Record Status
PA5000545,9,5,18-Dec-2015,37.73,0,0,2015,0,C
PA0003463,0,1,10-Dec-2015,326.25,0,0,2015,0,N
PA0003463,0,2,10-Dec-2015,326.75,0,0,2015,0,N
PA0003464,0,1,10-Dec-2015,417.75,0,0,2015,0,N
PA0003464,0,2,10-Dec-2015,418.25,0,0,2015,0,N
PA0003465,0,1,10-Dec-2015,360.03,0,0,2015,0,N
PA0003465,0,2,10-Dec-2015,363.04,0,0,2015,0,N
PA0003466,0,1,10-Dec-2015,429.42,0,0,2015,0,N
PA0003466,0,2,10-Dec-2015,432.44,0,0,2015,0,N
PA0002006,0,29,16-Dec-2015,2080.00,0,0,2015,0,N
PA0003467,0,29,16-Dec-2015,677.00,0,0,2015,0,N
PA0003469,0,29,16-Dec-2015,1661.00,0,0,2015,0,N
PA0003473,0,29,16-Dec-2015,1027.00,0,0,2015,0,N
PA0003475,0,29,16-Dec-2015,352.00,0,0,2015,0,N
PA0004007,0,29,16-Dec-2015,376.00,0,0,2015,0,N
PA0002007,0,29,17-Dec-2015,3830.90,0,0,2015,0,N
PA0003468,0,29,17-Dec-2015,5113.79,0,0,2015,0,N
PA0003472,0,29,17-Dec-2015,2124.50,0,0,2015,0,N
PA0003474,0,29,17-Dec-2015,1030.50,0,0,2015,0,N
PA0004006,0,29,17-Dec-2015,867.75,0,0,2015,0,N
PA5000252,2,1,17-Dec-2015,36.21,2,2,2016,0,N
PA5000252,2,2,17-Dec-2015,36.36,2,2,2016,0,N
PA5000252,2,8,17-Dec-2015,36.29,2,2,2016,0,N
PA5000253,8,1,17-Dec-2015,32.04,0,0,2015,0,N
PA5000253,8,2,17-Dec-2015,32.14,0,0,2015,0,N
PA5000253,8,3,17-Dec-2015,0.00,0,0,2015,0,N
PA5000255,8,1,17-Dec-2015,35.04,0,0,2015,0,N
PA5000255,8,2,17-Dec-2015,35.14,0,0,2015,0,N
PA5000255,8,3,17-Dec-2015,1.00,0,0,2015,0,N
PA5000256,6,1,17-Dec-2015,37.94,0,0,2015,0,N
PA5000256,6,2,17-Dec-2015,38.00,0,0,2015,0,N
PA5000256,6,3,17-Dec-2015,1.45,0,0,2015,0,N
PA5000257,6,8,17-Dec-2015,39.72,0,0,2015,0,N
PA5000257,8,3,17-Dec-2015,3.20,0,0,2015,0,N
PA5000259,8,1,17-Dec-2015,38.04,0,0,2015,0,N
PA5000259,8,2,17-Dec-2015,38.14,0,0,2015,0,N
PA5000259,8,3,17-Dec-2015,1.00,0,0,2015,0,N
PA5000260,6,1,17-Dec-2015,36.79,0,0,2015,0,N
PA5000260,6,2,17-Dec-2015,36.85,0,0,2015,0,N
PA5000260,6,3,17-Dec-2015,0.30,0,0,2015,0,N
PA5000260,6,8,17-Dec-2015,36.82,0,0,2015,0,N
PA5000262,6,1,17-Dec-2015,36.29,0,0,2015,0,N
PA5000262,6,2,17-Dec-2015,36.35,0,0,2015,0,N
PA5000262,6,3,17-Dec-2015,-0.20,0,0,2015,0,N
PA5000262,6,8,17-Dec-2015,36.32,0,0,2015,0,N
PA5000264,6,1,17-Dec-2015,35.09,0,0,2015,0,N
PA5000264,6,2,17-Dec-2015,35.15,0,0,2015,0,N
PA5000264,6,3,17-Dec-2015,-1.40,0,0,2015,0,N
PA5000264,6,8,17-Dec-2015,35.12,0,0,2015,0,N
PA5000267,8,1,17-Dec-2015,33.04,0,0,2015,0,N
PA5000267,8,2,17-Dec-2015,33.14,0,0,2015,0,N
PA5000267,8,3,17-Dec-2015,0.00,0,0,2015,0,N
PA5000267,8,8,17-Dec-2015,33.09,0,0,2015,0,N
PA5000268,6,1,17-Dec-2015,39.22,0,0,2015,0,N
PA5000268,6,2,17-Dec-2015,39.32,0,0,2015,0,N
PA5000268,6,8,17-Dec-2015,39.27,0,0,2015,0,N
PA5000268,8,3,17-Dec-2015,2.75,0,0,2015,0,N
PA5000270,6,1,17-Dec-2015,36.84,0,0,2015,0,N
PA5000270,6,2,17-Dec-2015,36.90,0,0,2015,0,N
PA5000270,6,3,17-Dec-2015,0.35,0,0,2015,0,N
PA5000270,6,8,17-Dec-2015,36.87,0,0,2015,0,N
PA5000276,8,1,17-Dec-2015,32.14,0,0,2015,0,N
PA5000276,8,2,17-Dec-2015,32.24,0,0,2015,0,N
PA5000276,8,3,17-Dec-2015,1.10,0,0,2015,0,N
PA5000276,8,8,17-Dec-2015,32.19,0,0,2015,0,N
PA5000277,6,1,17-Dec-2015,36.98,0,0,2015,0,N
PA5000277,6,2,17-Dec-2015,37.04,0,0,2015,0,N
PA5000277,6,3,17-Dec-2015,0.49,0,0,2015,0,N
PA5000278,6,1,17-Dec-2015,34.79,0,0,2015,0,N
PA5000278,6,2,17-Dec-2015,34.85,0,0,2015,0,N
PA5000278,6,3,17-Dec-2015,-1.70,0,0,2015,0,N
PA5000278,6,8,17-Dec-2015,34.82,0,0,2015,0,N
PA5000279,2,1,17-Dec-2015,29.62,0,3,2015,0,N
PA5000279,2,2,17-Dec-2015,30.12,0,3,2015,0,N
PA5000280,6,1,17-Dec-2015,36.69,0,0,2015,0,N
PA5000280,6,2,17-Dec-2015,36.75,0,0,2015,0,N
PA5000280,6,3,17-Dec-2015,0.20,0,0,2015,0,N
PA5000280,6,8,17-Dec-2015,36.72,0,0,2015,0,N
PA5000282,6,1,17-Dec-2015,35.09,0,0,2015,0,N
PA5000282,6,2,17-Dec-2015,35.15,0,0,2015,0,N
PA5000282,6,3,17-Dec-2015,-1.40,0,0,2015,0,N
PA5000282,6,8,17-Dec-2015,35.12,0,0,2015,0,N
PA5000283,6,1,17-Dec-2015,36.39,0,0,2015,0,N
PA5000283,6,2,17-Dec-2015,36.45,0,0,2015,0,N
PA5000283,6,3,17-Dec-2015,-0.10,0,0,2015,0,N
PA5000283,6,8,17-Dec-2015,36.42,0,0,2015,0,N
PA5000284,6,1,17-Dec-2015,36.77,0,0,2015,0,N
PA5000284,6,2,17-Dec-2015,36.83,0,0,2015,0,N
PA5000284,6,3,17-Dec-2015,0.28,0,0,2015,0,N
PA5000284,6,8,17-Dec-2015,36.80,0,0,2015,0,N
PA5000286,6,1,17-Dec-2015,32.93,0,0,2015,0,N
PA5000286,6,2,17-Dec-2015,32.99,0,0,2015,0,N
PA5000286,6,3,17-Dec-2015,-3.56,0,0,2015,0,N
PA5000286,6,8,17-Dec-2015,32.96,0,0,2015,0,N
PA5000287,6,1,17-Dec-2015,34.33,0,0,2015,0,N
PA5000287,6,2,17-Dec-2015,34.39,0,0,2015,0,N
PA5000287,6,3,17-Dec-2015,-2.16,0,0,2015,0,N
PA5000287,6,8,17-Dec-2015,34.36,0,0,2015,0,N
PA5000288,6,1,17-Dec-2015,32.89,0,0,2015,0,N
PA5000288,6,2,17-Dec-2015,32.95,0,0,2015,0,N
PA5000288,6,3,17-Dec-2015,-3.60,0,0,2015,0,N
PA5000289,6,1,17-Dec-2015,39.22,0,0,2015,0,N
PA5000289,6,2,17-Dec-2015,39.32,0,0,2015,0,N
PA5000289,6,8,17-Dec-2015,39.27,0,0,2015,0,N
PA5000289,8,3,17-Dec-2015,2.75,0,0,2015,0,N
PA5000290,2,1,17-Dec-2015,33.32,1,1,2016,0,N
PA5000290,2,2,17-Dec-2015,33.82,1,1,2016,0,N
PA5000290,2,8,17-Dec-2015,33.57,1,1,2016,0,N
PA5000292,8,1,17-Dec-2015,35.04,0,0,2015,0,N
PA5000292,8,2,17-Dec-2015,35.14,0,0,2015,0,N
PA5000292,8,3,17-Dec-2015,2.00,0,0,2015,0,N
PA5000292,8,8,17-Dec-2015,35.09,0,0,2015,0,N
PA5000293,8,1,17-Dec-2015,36.70,2,0,2016,0,N
PA5000293,8,2,17-Dec-2015,36.80,2,0,2016,0,N
PA5000293,8,3,17-Dec-2015,1.05,2,0,2016,0,N
PA5000293,8,8,17-Dec-2015,36.75,2,0,2016,0,N
PA5000294,6,4,17-Dec-2015,36.96,0,0,2015,0,N
PA5000295,6,8,17-Dec-2015,40.27,0,0,2015,0,N
PA5000295,8,3,17-Dec-2015,3.75,0,0,2015,0,N
PA5000298,6,1,17-Dec-2015,37.59,0,0,2015,0,N
PA5000298,6,2,17-Dec-2015,37.65,0,0,2015,0,N
PA5000298,6,3,17-Dec-2015,1.10,0,0,2015,0,N
PA5000298,6,8,17-Dec-2015,37.62,0,0,2015,0,N
PA5000299,2,1,17-Dec-2015,32.55,1,1,2016,0,N
PA5000299,2,2,17-Dec-2015,32.65,1,1,2016,0,N
PA5000299,2,8,17-Dec-2015,32.60,1,1,2016,0,N
PA5000300,8,1,17-Dec-2015,35.20,2,0,2016,0,N
PA5000300,8,2,17-Dec-2015,35.30,2,0,2016,0,N
PA5000300,8,3,17-Dec-2015,0.70,2,0,2016,0,N
PA5000300,8,8,17-Dec-2015,35.25,2,0,2016,0,N
PA5000301,8,1,17-Dec-2015,31.80,2,0,2016,0,N
PA5000301,8,2,17-Dec-2015,31.90,2,0,2016,0,N
PA5000301,8,3,17-Dec-2015,0.25,2,0,2016,0,N
PA5000301,8,8,17-Dec-2015,31.85,2,0,2016,0,N
PA5000302,6,1,17-Dec-2015,37.09,0,0,2015,0,N
PA5000302,6,2,17-Dec-2015,37.15,0,0,2015,0,N
PA5000302,6,3,17-Dec-2015,0.60,0,0,2015,0,N
PA5000302,6,8,17-Dec-2015,37.12,0,0,2015,0,N
PA5000304,6,1,17-Dec-2015,36.99,0,0,2015,0,N
PA5000304,6,2,17-Dec-2015,37.05,0,0,2015,0,N
PA5000304,6,3,17-Dec-2015,0.50,0,0,2015,0,N
PA5000304,6,8,17-Dec-2015,37.02,0,0,2015,0,N
PA5000305,6,1,17-Dec-2015,36.99,0,0,2015,0,N
PA5000305,6,2,17-Dec-2015,37.05,0,0,2015,0,N
PA5000305,6,3,17-Dec-2015,0.50,0,0,2015,0,N
PA5000305,6,8,17-Dec-2015,37.02,0,0,2015,0,N
PA5000306,6,1,17-Dec-2015,36.84,0,0,2015,0,N
PA5000306,6,2,17-Dec-2015,36.90,0,0,2015,0,N
PA5000306,6,3,17-Dec-2015,0.35,0,0,2015,0,N
PA5000306,6,8,17-Dec-2015,36.87,0,0,2015,0,N
PA5000307,6,1,17-Dec-2015,33.54,0,0,2015,0,N
PA5000307,6,2,17-Dec-2015,33.60,0,0,2015,0,N
PA5000307,6,3,17-Dec-2015,-2.95,0,0,2015,0,N
PA5000307,6,8,17-Dec-2015,33.57,0,0,2015,0,N
PA5000310,6,1,17-Dec-2015,37.09,0,0,2015,0,N
PA5000310,6,2,17-Dec-2015,37.15,0,0,2015,0,N
PA5000310,6,3,17-Dec-2015,0.60,0,0,2015,0,N
PA5000310,6,8,17-Dec-2015,37.12,0,0,2015,0,N
PA5000311,6,1,17-Dec-2015,35.24,0,0,2015,0,N
PA5000311,6,2,17-Dec-2015,35.30,0,0,2015,0,N
PA5000311,6,3,17-Dec-2015,-1.25,0,0,2015,0,N
PA5000311,6,8,17-Dec-2015,35.27,0,0,2015,0,N
PA5000312,6,1,17-Dec-2015,34.19,0,0,2015,0,N
PA5000312,6,2,17-Dec-2015,34.25,0,0,2015,0,N
PA5000312,6,3,17-Dec-2015,-2.30,0,0,2015,0,N
PA5000312,6,8,17-Dec-2015,34.22,0,0,2015,0,N
PA5000313,2,1,17-Dec-2015,30.32,0,3,2015,0,N
PA5000313,2,2,17-Dec-2015,31.32,0,3,2015,0,N
PA5000314,8,1,17-Dec-2015,33.54,0,0,2015,0,N
PA5000314,8,2,17-Dec-2015,33.64,0,0,2015,0,N
PA5000314,8,3,17-Dec-2015,0.50,0,0,2015,0,N
PA5000314,8,8,17-Dec-2015,33.59,0,0,2015,0,N
PA5000316,6,1,17-Dec-2015,318.00,0,0,2015,0,N
PA5000316,6,2,17-Dec-2015,327.00,0,0,2015,0,N
PA5000316,6,8,17-Dec-2015,322.50,0,0,2015,0,N
PA5000317,8,6,17-Dec-2015,-43.00,1,1,2016,0,N
PA5000317,8,7,17-Dec-2015,-33.00,1,1,2016,0,N
PA5000318,8,6,17-Dec-2015,51.00,2,1,2016,0,N
PA5000318,8,7,17-Dec-2015,55.00,2,1,2016,0,N
PA5000319,6,1,17-Dec-2015,322.00,0,0,2015,0,N
PA5000319,6,2,17-Dec-2015,332.00,0,0,2015,0,N
PA5000319,6,8,17-Dec-2015,327.00,0,0,2015,0,N
PA5000320,2,1,17-Dec-2015,51.75,12,0,2015,0,N
PA5000320,2,2,17-Dec-2015,52.25,12,0,2015,0,N
PA5000320,2,8,17-Dec-2015,52.00,12,0,2015,0,N
PA5000321,6,1,17-Dec-2015,290.00,0,0,2015,0,N
PA5000321,6,2,17-Dec-2015,300.00,0,0,2015,0,N
PA5000321,6,8,17-Dec-2015,295.00,0,0,2015,0,N
PA5000322,8,6,17-Dec-2015,-43.00,1,1,2016,0,N
PA5000322,8,7,17-Dec-2015,-33.00,1,1,2016,0,N
PA5000323,8,6,17-Dec-2015,28.00,2,1,2016,0,N
PA5000323,8,7,17-Dec-2015,32.00,2,1,2016,0,N
PA5000324,6,1,17-Dec-2015,296.00,0,0,2015,0,N
PA5000324,6,2,17-Dec-2015,306.00,0,0,2015,0,N
PA5000324,6,8,17-Dec-2015,301.00,0,0,2015,0,N
PA5000325,2,1,17-Dec-2015,34.63,12,0,2015,0,N
PA5000325,2,2,17-Dec-2015,35.50,12,0,2015,0,N
PA5000325,2,8,17-Dec-2015,35.06,12,0,2015,0,N
PA5000326,6,1,17-Dec-2015,162.00,0,0,2015,0,N
PA5000326,6,2,17-Dec-2015,166.00,0,0,2015,0,N
PA5000326,6,8,17-Dec-2015,164.00,0,0,2015,0,N
PA5000327,6,1,17-Dec-2015,167.75,0,0,2015,0,N
PA5000327,6,2,17-Dec-2015,171.75,0,0,2015,0,N
PA5000327,6,8,17-Dec-2015,169.75,0,0,2015,0,N
PA5000328,6,1,17-Dec-2015,140.25,0,0,2015,0,N
PA5000328,6,2,17-Dec-2015,144.25,0,0,2015,0,N
PA5000328,6,8,17-Dec-2015,142.25,0,0,2015,0,N
PA5000329,6,8,17-Dec-2015,130.75,0,0,2015,0,N
PA5000330,6,1,17-Dec-2015,127.75,0,0,2015,0,N
PA5000330,6,2,17-Dec-2015,131.75,0,0,2015,0,N
PA5000330,6,8,17-Dec-2015,129.75,0,0,2015,0,N
PA5000331,2,8,17-Dec-2015,223.50,0,0,2015,0,N
PA5000332,2,1,17-Dec-2015,180.50,0,0,2015,0,N
PA5000332,2,2,17-Dec-2015,185.50,0,0,2015,0,N
PA5000333,2,1,17-Dec-2015,178.00,0,0,2015,0,N
PA5000333,2,2,17-Dec-2015,182.00,0,0,2015,0,N
PA5000333,2,8,17-Dec-2015,180.00,0,0,2015,0,N
PA5000334,8,1,17-Dec-2015,178.65,0,0,2015,0,N
PA5000334,8,2,17-Dec-2015,179.65,0,0,2015,0,N
PA5000334,8,8,17-Dec-2015,179.15,0,0,2015,0,N
PA5000335,8,1,17-Dec-2015,142.75,0,0,2015,0,N
PA5000335,8,2,17-Dec-2015,143.75,0,0,2015,0,N
PA5000335,8,8,17-Dec-2015,143.25,0,0,2015,0,N
PA5000336,8,1,17-Dec-2015,163.00,0,0,2015,0,N
PA5000336,8,2,17-Dec-2015,164.00,0,0,2015,0,N
PA5000336,8,8,17-Dec-2015,163.50,0,0,2015,0,N
PA5000337,8,1,17-Dec-2015,137.95,0,0,2015,0,N
PA5000337,8,2,17-Dec-2015,138.95,0,0,2015,0,N
PA5000337,8,8,17-Dec-2015,138.45,0,0,2015,0,N
PA5000338,8,1,17-Dec-2015,158.25,0,0,2015,0,N
PA5000338,8,2,17-Dec-2015,159.25,0,0,2015,0,N
PA5000338,8,3,17-Dec-2015,-2.00,0,0,2015,0,N
PA5000338,8,6,17-Dec-2015,-2.50,0,0,2015,0,N
PA5000338,8,7,17-Dec-2015,-1.50,0,0,2015,0,N
PA5000338,8,8,17-Dec-2015,158.75,0,0,2015,0,N
PA5000341,2,1,17-Dec-2015,22.50,0,0,2015,0,N
PA5000341,2,2,17-Dec-2015,22.70,0,0,2015,0,N
PA5000341,2,8,17-Dec-2015,22.60,0,0,2015,0,N
PA5000343,2,1,17-Dec-2015,22.40,0,0,2015,0,N
PA5000343,2,2,17-Dec-2015,22.50,0,0,2015,0,N
PA5000343,2,8,17-Dec-2015,22.45,0,0,2015,0,N
PA5000345,2,1,17-Dec-2015,21.35,0,0,2015,0,N
PA5000345,2,2,17-Dec-2015,21.50,0,0,2015,0,N
PA5000345,2,8,17-Dec-2015,21.43,0,0,2015,0,N
PA5000346,6,6,17-Dec-2015,-6.00,0,0,2015,0,N
PA5000346,6,7,17-Dec-2015,-5.50,0,0,2015,0,N
PA5000347,8,1,17-Dec-2015,39.05,0,0,2015,0,N
PA5000347,8,2,17-Dec-2015,39.25,0,0,2015,0,N
PA5000348,8,1,17-Dec-2015,38.65,0,0,2015,0,N
PA5000348,8,2,17-Dec-2015,38.85,0,0,2015,0,N
PA5000348,8,8,17-Dec-2015,38.75,0,0,2015,0,N
PA5000349,2,1,17-Dec-2015,113.78,12,1,2015,0,N
PA5000349,2,2,17-Dec-2015,114.78,12,1,2015,0,N
PA5000349,2,8,17-Dec-2015,114.28,12,1,2015,0,N
PA5000350,2,1,17-Dec-2015,101.03,12,1,2015,0,N
PA5000350,2,2,17-Dec-2015,102.03,12,1,2015,0,N
PA5000351,6,1,17-Dec-2015,329.50,0,1,2015,0,N
PA5000351,6,2,17-Dec-2015,330.50,0,1,2015,0,N
PA5000351,6,8,17-Dec-2015,330.00,0,1,2015,0,N
PA5000352,6,1,17-Dec-2015,330.50,0,1,2015,0,N
PA5000352,6,2,17-Dec-2015,331.50,0,1,2015,0,N
PA5000352,6,3,17-Dec-2015,-5.00,0,1,2015,0,N
PA5000352,6,6,17-Dec-2015,-5.50,0,1,2015,0,N
PA5000352,6,7,17-Dec-2015,-4.50,0,1,2015,0,N
PA5000352,6,8,17-Dec-2015,331.00,0,1,2015,0,N
PA5000353,6,1,17-Dec-2015,314.75,0,1,2015,0,N
PA5000353,6,2,17-Dec-2015,315.25,0,1,2015,0,N
PA5000353,6,3,17-Dec-2015,-21.00,0,1,2015,0,N
PA5000353,6,6,17-Dec-2015,-21.25,0,1,2015,0,N
PA5000353,6,7,17-Dec-2015,-20.75,0,1,2015,0,N
PA5000353,6,8,17-Dec-2015,315.00,0,1,2015,0,N
PA5000354,6,1,17-Dec-2015,314.75,0,1,2015,0,N
PA5000354,6,2,17-Dec-2015,315.25,0,1,2015,0,N
PA5000354,6,3,17-Dec-2015,-21.00,0,1,2015,0,N
PA5000354,6,6,17-Dec-2015,-21.25,0,1,2015,0,N
PA5000354,6,7,17-Dec-2015,-20.75,0,1,2015,0,N
PA5000354,6,8,17-Dec-2015,315.00,0,1,2015,0,N
PA5000355,6,8,17-Dec-2015,304.25,0,0,2015,0,N
PA5000356,6,1,17-Dec-2015,314.25,0,1,2015,0,N
PA5000356,6,2,17-Dec-2015,314.75,0,1,2015,0,N
PA5000357,8,1,17-Dec-2015,41.80,0,0,2015,0,N
PA5000357,8,2,17-Dec-2015,42.00,0,0,2015,0,N
PA5000357,8,8,17-Dec-2015,41.90,0,0,2015,0,N
PA5000358,8,1,17-Dec-2015,44.65,0,0,2015,0,N
PA5000358,8,2,17-Dec-2015,44.85,0,0,2015,0,N
PA5000358,8,8,17-Dec-2015,44.75,0,0,2015,0,N
PA5000362,2,1,17-Dec-2015,127.67,0,1,2015,0,N
PA5000362,2,2,17-Dec-2015,128.17,0,1,2015,0,N
PA5000362,2,8,17-Dec-2015,127.92,0,1,2015,0,N
PA5000363,2,1,17-Dec-2015,118.41,0,1,2015,0,N
PA5000363,2,2,17-Dec-2015,120.41,0,1,2015,0,N
PA5000363,2,8,17-Dec-2015,119.41,0,1,2015,0,N
PA5000366,8,1,17-Dec-2015,52.00,0,0,2015,0,N
PA5000366,8,2,17-Dec-2015,52.20,0,0,2015,0,N
PA5000367,2,1,17-Dec-2015,141.67,0,1,2015,0,N
PA5000367,2,2,17-Dec-2015,142.17,0,1,2015,0,N
PA5000367,2,8,17-Dec-2015,141.92,0,1,2015,0,N
PA5000368,2,1,17-Dec-2015,132.41,0,1,2015,0,N
PA5000368,2,2,17-Dec-2015,133.41,0,1,2015,0,N
PA5000368,2,8,17-Dec-2015,132.91,0,1,2015,0,N
PA5000370,8,1,17-Dec-2015,53.10,0,0,2015,0,N
PA5000370,8,2,17-Dec-2015,53.30,0,0,2015,0,N
PA5000370,8,8,17-Dec-2015,53.20,0,0,2015,0,N
PA5000372,8,1,17-Dec-2015,54.90,0,0,2015,0,N
PA5000372,8,2,17-Dec-2015,55.10,0,0,2015,0,N
PA5000372,8,8,17-Dec-2015,55.00,0,0,2015,0,N
PA5000376,8,1,17-Dec-2015,47.15,0,0,2015,0,N
PA5000376,8,2,17-Dec-2015,47.35,0,0,2015,0,N
PA5000376,8,8,17-Dec-2015,47.25,0,0,2015,0,N
PA5000377,8,1,17-Dec-2015,42.65,0,0,2015,0,N
PA5000377,8,2,17-Dec-2015,42.85,0,0,2015,0,N
PA5000377,8,8,17-Dec-2015,42.75,0,0,2015,0,N
PA5000378,6,1,17-Dec-2015,368.00,0,1,2015,0,N
PA5000378,6,2,17-Dec-2015,369.00,0,1,2015,0,N
PA5000378,6,8,17-Dec-2015,368.50,0,1,2015,0,N
PA5000379,8,1,17-Dec-2015,45.20,0,0,2015,0,N
PA5000379,8,2,17-Dec-2015,45.40,0,0,2015,0,N
PA5000379,8,8,17-Dec-2015,45.30,0,0,2015,0,N
PA5000380,2,1,17-Dec-2015,102.78,0,1,2015,0,N
PA5000380,2,2,17-Dec-2015,104.28,0,1,2015,0,N
PA5000380,2,8,17-Dec-2015,103.53,0,1,2015,0,N
PA5000381,6,1,17-Dec-2015,346.75,0,0,2015,0,N
PA5000381,6,2,17-Dec-2015,347.75,0,0,2015,0,N
PA5000381,6,8,17-Dec-2015,347.25,0,0,2015,0,N
PA5000382,2,1,17-Dec-2015,117.28,0,1,2015,0,N
PA5000382,2,2,17-Dec-2015,117.78,0,1,2015,0,N
PA5000382,2,8,17-Dec-2015,117.53,0,1,2015,0,N
PA5000383,2,1,17-Dec-2015,110.53,12,1,2015,0,N
PA5000383,2,2,17-Dec-2015,111.53,12,1,2015,0,N
PA5000383,2,8,17-Dec-2015,111.03,12,1,2015,0,N
PA5000384,2,1,17-Dec-2015,107.53,12,1,2015,0,N
PA5000384,2,2,17-Dec-2015,108.53,12,1,2015,0,N
PA5000385,6,1,17-Dec-2015,507.25,0,0,2015,0,N
PA5000385,6,2,17-Dec-2015,507.75,0,0,2015,0,N
PA5000387,2,6,17-Dec-2015,-15.00,0,0,2015,0,N
PA5000387,2,7,17-Dec-2015,-12.00,0,0,2015,0,N
PA5000388,6,1,17-Dec-2015,379.00,0,0,2015,0,N
PA5000388,6,2,17-Dec-2015,380.00,0,0,2015,0,N
PA5000388,6,8,17-Dec-2015,379.50,0,0,2015,0,N
PA5000389,6,1,17-Dec-2015,368.25,0,0,2015,0,N
PA5000389,6,2,17-Dec-2015,369.25,0,0,2015,0,N
PA5000389,6,8,17-Dec-2015,368.75,0,0,2015,0,N
PA5000390,6,8,17-Dec-2015,358.00,0,0,2015,0,N
PA5000391,8,1,17-Dec-2015,408.25,0,0,2015,0,N
PA5000391,8,2,17-Dec-2015,411.50,0,0,2015,0,N
PA5000391,8,8,17-Dec-2015,409.88,0,0,2015,0,N
PA5000392,8,1,17-Dec-2015,374.55,0,0,2015,0,N
PA5000392,8,2,17-Dec-2015,377.80,0,0,2015,0,N
PA5000392,8,3,17-Dec-2015,14.75,0,0,2015,0,N
PA5000392,8,6,17-Dec-2015,13.75,0,0,2015,0,N
PA5000392,8,7,17-Dec-2015,15.75,0,0,2015,0,N
PA5000392,8,8,17-Dec-2015,376.18,0,0,2015,0,N
PA5000393,8,1,17-Dec-2015,44.40,0,0,2015,0,N
PA5000393,8,2,17-Dec-2015,44.50,0,0,2015,0,N
PA5000393,8,8,17-Dec-2015,44.45,0,0,2015,0,N
PA5000394,2,1,17-Dec-2015,95.78,0,1,2015,0,N
PA5000394,2,2,17-Dec-2015,96.28,0,1,2015,0,N
PA5000394,2,8,17-Dec-2015,96.03,0,1,2015,0,N
PA5000395,2,1,17-Dec-2015,88.78,0,1,2015,0,N
PA5000395,2,2,17-Dec-2015,89.78,0,1,2015,0,N
PA5000395,2,8,17-Dec-2015,89.28,0,1,2015,0,N
PA5000396,6,1,17-Dec-2015,270.00,0,0,2015,0,N
PA5000396,6,2,17-Dec-2015,273.50,0,0,2015,0,N
PA5000396,6,8,17-Dec-2015,271.75,0,0,2015,0,N
PA5000397,6,1,17-Dec-2015,259.75,0,0,2015,0,N
PA5000397,6,2,17-Dec-2015,263.25,0,0,2015,0,N
PA5000397,6,8,17-Dec-2015,261.50,0,0,2015,0,N
PA5000398,6,1,17-Dec-2015,263.00,0,0,2015,0,N
PA5000398,6,2,17-Dec-2015,266.25,0,0,2015,0,N
PA5000398,6,8,17-Dec-2015,264.63,0,0,2015,0,N
PA5000399,2,6,17-Dec-2015,-3.35,0,0,2015,0,N
PA5000399,2,7,17-Dec-2015,-0.97,0,0,2015,0,N
PA5000400,2,6,17-Dec-2015,-1.56,0,0,2015,0,N
PA5000400,2,7,17-Dec-2015,0.82,0,0,2015,0,N
PA5000401,6,1,17-Dec-2015,34.79,0,0,2015,0,N
PA5000401,6,2,17-Dec-2015,34.85,0,0,2015,0,N
PA5000401,6,3,17-Dec-2015,-1.70,0,0,2015,0,N
PA5000401,6,8,17-Dec-2015,34.82,0,0,2015,0,N
PA5000402,6,1,17-Dec-2015,35.59,0,0,2015,0,N
PA5000402,6,2,17-Dec-2015,35.65,0,0,2015,0,N
PA5000402,6,3,17-Dec-2015,-0.90,0,0,2015,0,N
PA5000402,6,8,17-Dec-2015,35.62,0,0,2015,0,N
PA5000403,6,1,17-Dec-2015,36.49,0,3,2015,0,N
PA5000403,6,2,17-Dec-2015,36.55,0,3,2015,0,N
PA5000403,6,3,17-Dec-2015,-1.30,0,3,2015,0,N
PA5000403,6,8,17-Dec-2015,36.52,0,3,2015,0,N
PA5000404,2,1,17-Dec-2015,160.66,12,1,2015,0,N
PA5000404,2,2,17-Dec-2015,161.66,12,1,2015,0,N
PA5000405,2,1,17-Dec-2015,216.16,12,0,2015,0,N
PA5000405,2,2,17-Dec-2015,217.16,12,0,2015,0,N
PA5000405,2,8,17-Dec-2015,216.66,12,0,2015,0,N
PA5000406,2,1,17-Dec-2015,193.16,12,0,2015,0,N
PA5000406,2,2,17-Dec-2015,195.16,12,0,2015,0,N
PA5000407,2,5,17-Dec-2015,34.95,1,0,2016,0,N
PA5000408,6,1,17-Dec-2015,36.43,1,0,2016,0,N
PA5000408,6,2,17-Dec-2015,36.51,1,0,2016,0,N
PA5000408,6,8,17-Dec-2015,36.47,1,0,2016,0,N
PA5000409,9,5,17-Dec-2015,37.29,2,0,2016,0,N
PA5000410,6,1,17-Dec-2015,32.34,2,0,2016,0,N
PA5000410,6,2,17-Dec-2015,32.42,2,0,2016,0,N
PA5000410,6,8,17-Dec-2015,32.38,2,0,2016,0,N
PA5000411,8,1,17-Dec-2015,32.19,2,2,2016,0,N
PA5000411,8,2,17-Dec-2015,32.29,2,2,2016,0,N
PA5000411,8,3,17-Dec-2015,-1.60,2,2,2016,0,N
PA5000411,8,8,17-Dec-2015,32.24,2,2,2016,0,N
PA5000413,9,1,17-Dec-2015,34.93,1,0,2016,0,N
PA5000413,9,2,17-Dec-2015,34.97,1,0,2016,0,N
PA5000413,9,8,17-Dec-2015,34.95,1,0,2016,0,N
PA5000414,8,1,17-Dec-2015,167.25,1,0,2016,0,N
PA5000414,8,2,17-Dec-2015,168.25,1,0,2016,0,N
PA5000415,6,1,17-Dec-2015,151.25,1,0,2016,0,N
PA5000415,6,2,17-Dec-2015,152.25,1,0,2016,0,N
PA5000416,8,1,17-Dec-2015,43.00,1,0,2016,0,N
PA5000416,8,2,17-Dec-2015,43.20,1,0,2016,0,N
PA5000417,6,1,17-Dec-2015,424.25,1,0,2016,0,N
PA5000417,6,2,17-Dec-2015,426.25,1,0,2016,0,N
PA5000418,8,1,17-Dec-2015,45.25,1,0,2016,0,N
PA5000418,8,2,17-Dec-2015,45.45,1,0,2016,0,N
PA5000419,8,1,17-Dec-2015,43.10,1,0,2016,0,N
PA5000419,8,2,17-Dec-2015,43.30,1,0,2016,0,N
PA5000420,2,1,17-Dec-2015,22.80,12,0,2015,0,N
PA5000420,2,2,17-Dec-2015,22.90,12,0,2015,0,N
PA5000421,6,1,17-Dec-2015,143.00,1,0,2016,0,N
PA5000421,6,2,17-Dec-2015,144.00,1,0,2016,0,N
PA5000422,6,5,17-Dec-2015,336.00,1,0,2016,0,N
PA5000424,2,5,17-Dec-2015,1.76,1,0,2016,0,N
PA5000425,2,5,17-Dec-2015,110.53,1,0,2016,0,N
PA5000426,9,5,17-Dec-2015,37.06,2,0,2016,0,N
PA5000430,2,1,17-Dec-2015,166.16,12,1,2015,0,N
PA5000430,2,2,17-Dec-2015,178.16,12,1,2015,0,N
PA5000430,2,8,17-Dec-2015,172.16,12,1,2015,0,N
PA5000431,6,1,17-Dec-2015,33.09,0,0,2015,0,N
PA5000431,6,2,17-Dec-2015,33.15,0,0,2015,0,N
PA5000431,6,3,17-Dec-2015,-3.40,0,0,2015,0,N
PA5000601,2,5,17-Dec-2015,36.27,2,0,2016,0,N
PA5000602,6,1,17-Dec-2015,36.93,2,0,2016,0,N
PA5000602,6,2,17-Dec-2015,37.01,2,0,2016,0,N
PA5000602,6,8,17-Dec-2015,36.97,2,0,2016,0,N
PA5000603,6,1,17-Dec-2015,37.79,3,0,2016,0,N
PA5000603,6,2,17-Dec-2015,37.85,3,0,2016,0,N
PA5000603,6,8,17-Dec-2015,37.82,3,0,2016,0,N
PA5000604,6,1,17-Dec-2015,38.68,4,0,2016,0,N
PA5000604,6,2,17-Dec-2015,38.76,4,0,2016,0,N
PA5000604,6,8,17-Dec-2015,38.72,4,0,2016,0,N
PA5000605,9,5,17-Dec-2015,37.85,3,0,2016,0,N
PA5000606,6,1,17-Dec-2015,32.95,3,0,2016,0,N
PA5000606,6,2,17-Dec-2015,33.05,3,0,2016,0,N
PA5000606,6,8,17-Dec-2015,33.00,3,0,2016,0,N
PA5000607,6,1,17-Dec-2015,33.90,4,0,2016,0,N
PA5000607,6,2,17-Dec-2015,34.00,4,0,2016,0,N
PA5000607,6,8,17-Dec-2015,33.95,4,0,2016,0,N
PA5000608,6,1,17-Dec-2015,34.82,5,0,2016,0,N
PA5000608,6,2,17-Dec-2015,34.92,5,0,2016,0,N
PA5000608,6,8,17-Dec-2015,34.87,5,0,2016,0,N
PA5000612,9,1,17-Dec-2015,36.25,2,0,2016,0,N
PA5000612,9,2,17-Dec-2015,36.29,2,0,2016,0,N
PA5000612,9,8,17-Dec-2015,36.27,2,0,2016,0,N
PA5000613,9,1,17-Dec-2015,37.44,3,0,2016,0,N
PA5000613,9,2,17-Dec-2015,37.48,3,0,2016,0,N
PA5000613,9,8,17-Dec-2015,37.46,3,0,2016,0,N
PA5000614,9,1,17-Dec-2015,38.42,4,0,2016,0,N
PA5000614,9,2,17-Dec-2015,38.46,4,0,2016,0,N
PA5000614,9,8,17-Dec-2015,38.44,4,0,2016,0,N
PA5000615,8,1,17-Dec-2015,172.00,2,0,2016,0,N
PA5000615,8,2,17-Dec-2015,173.00,2,0,2016,0,N
PA5000616,8,1,17-Dec-2015,177.25,3,0,2016,0,N
PA5000616,8,2,17-Dec-2015,178.25,3,0,2016,0,N
PA5000617,6,1,17-Dec-2015,156.75,2,0,2016,0,N
PA5000617,6,2,17-Dec-2015,157.75,2,0,2016,0,N
PA5000618,6,1,17-Dec-2015,162.25,3,0,2016,0,N
PA5000618,6,2,17-Dec-2015,163.25,3,0,2016,0,N
PA5000619,8,1,17-Dec-2015,43.90,2,0,2016,0,N
PA5000619,8,2,17-Dec-2015,44.10,2,0,2016,0,N
PA5000620,8,1,17-Dec-2015,44.85,3,0,2016,0,N
PA5000620,8,2,17-Dec-2015,45.05,3,0,2016,0,N
PA5000621,6,1,17-Dec-2015,432.00,2,0,2016,0,N
PA5000621,6,2,17-Dec-2015,434.00,2,0,2016,0,N
PA5000622,6,1,17-Dec-2015,440.50,3,0,2016,0,N
PA5000622,6,2,17-Dec-2015,442.50,3,0,2016,0,N
PA5000623,8,1,17-Dec-2015,45.80,2,0,2016,0,N
PA5000623,8,2,17-Dec-2015,46.00,2,0,2016,0,N
PA5000624,8,1,17-Dec-2015,46.60,3,0,2016,0,N
PA5000624,8,2,17-Dec-2015,46.80,3,0,2016,0,N
PA5000625,8,1,17-Dec-2015,42.90,2,0,2016,0,N
PA5000625,8,2,17-Dec-2015,43.10,2,0,2016,0,N
PA5000626,8,1,17-Dec-2015,42.70,3,0,2016,0,N
PA5000626,8,2,17-Dec-2015,42.90,3,0,2016,0,N
PA5000627,2,1,17-Dec-2015,23.20,1,0,2016,0,N
PA5000627,2,2,17-Dec-2015,23.30,1,0,2016,0,N
PA5000628,2,1,17-Dec-2015,24.05,2,0,2016,0,N
PA5000628,2,2,17-Dec-2015,24.15,2,0,2016,0,N
PA5000629,6,1,17-Dec-2015,149.50,2,0,2016,0,N
PA5000629,6,2,17-Dec-2015,150.50,2,0,2016,0,N
PA5000630,6,1,17-Dec-2015,155.75,3,0,2016,0,N
PA5000630,6,2,17-Dec-2015,156.75,3,0,2016,0,N
PA5000631,6,5,17-Dec-2015,345.25,2,0,2016,0,N
PA5000634,2,5,17-Dec-2015,1.87,2,0,2016,0,N
PA5000635,2,5,17-Dec-2015,113.97,2,0,2016,0,N
PA5000636,2,5,17-Dec-2015,117.15,3,0,2016,0,N
PA5000637,9,5,17-Dec-2015,37.62,3,0,2016,0,N
PA5000640,2,5,17-Dec-2015,126.16,1,0,2016,0,N
PA5000641,2,5,17-Dec-2015,126.24,2,0,2016,0,N
PA5000660,0,3,17-Dec-2015,-1.10,12,0,2015,0,N
PA5000661,0,3,17-Dec-2015,-4.65,1,0,2016,0,N
PA5000662,0,3,17-Dec-2015,-0.40,1,0,2016,0,N
PA5000663,0,3,17-Dec-2015,-8.10,1,0,2016,0,N
PA5000664,0,3,17-Dec-2015,-1.75,1,0,2016,0,N
PA5000665,0,3,17-Dec-2015,-1.40,1,0,2016,0,N
PA5000666,0,3,17-Dec-2015,1.50,1,0,2016,0,N
PA5000667,0,3,17-Dec-2015,-4.25,1,0,2016,0,N
PA5000668,0,3,17-Dec-2015,0.15,1,0,2016,0,N
PA5000669,0,3,17-Dec-2015,-5.90,1,0,2016,0,N
PA5000670,0,3,17-Dec-2015,-3.20,1,0,2016,0,N
PA5000671,0,3,17-Dec-2015,-1.35,1,0,2016,0,N
PA5000672,0,3,17-Dec-2015,0.00,1,0,2016,0,N
PA5000673,0,8,17-Dec-2015,41.33,11,0,2015,0,N
PA5000675,0,8,17-Dec-2015,43.72,11,0,2015,0,N
PA5000676,0,3,17-Dec-2015,-3.45,1,0,2016,0,N
PA5000677,0,3,17-Dec-2015,-4.75,1,0,2016,0,N
PA5000678,0,3,17-Dec-2015,-0.80,1,0,2016,0,N
PA5000680,0,8,17-Dec-2015,45.43,11,0,2015,0,N
PA5000681,0,3,17-Dec-2015,-1.95,1,0,2016,0,N
PA5000682,0,3,17-Dec-2015,2.85,1,0,2016,0,N
PA5000684,0,8,17-Dec-2015,44.69,11,0,2015,0,N
PA5000685,0,3,17-Dec-2015,0.00,12,0,2015,0,N
PA5000686,0,3,17-Dec-2015,-3.10,12,0,2015,0,N
PA5000687,0,3,17-Dec-2015,-0.71,12,0,2015,0,N
PA5000688,0,3,17-Dec-2015,-0.25,12,0,2015,0,N
PA5000689,0,3,17-Dec-2015,1.20,12,0,2015,0,N
PA5000690,0,8,17-Dec-2015,39.87,11,0,2015,0,N
PA5000691,0,3,17-Dec-2015,0.71,11,0,2015,0,N
PA5000691,0,8,17-Dec-2015,42.40,11,0,2015,0,N
PA5000692,0,8,17-Dec-2015,37.42,11,0,2015,0,N
PA5000693,0,3,17-Dec-2015,-1.00,12,0,2015,0,N
PA5000694,0,3,17-Dec-2015,-0.20,12,0,2015,0,N
PA5000695,0,3,17-Dec-2015,0.20,12,0,2015,0,N
PA5000696,0,3,17-Dec-2015,0.27,12,0,2015,0,N
PA5000697,0,3,17-Dec-2015,-3.30,1,0,2016,0,N
PA5000698,0,3,17-Dec-2015,-1.20,1,0,2016,0,N
PA5000700,0,3,17-Dec-2015,0.30,1,0,2016,0,N
PA5000701,0,3,17-Dec-2015,-3.75,1,0,2016,0,N
PA5000702,0,8,17-Dec-2015,47.49,11,0,2015,0,N
PA5000704,0,3,17-Dec-2015,0.00,6,0,2015,0,N
PA5000705,0,3,17-Dec-2015,-2.24,11,0,2015,0,N
PA5000705,0,8,17-Dec-2015,39.45,11,0,2015,0,N
PA5000706,0,3,17-Dec-2015,1.22,6,0,2015,0,N
PA5000708,0,8,17-Dec-2015,41.03,11,0,2015,0,N
PA5000709,0,8,17-Dec-2015,47.49,11,0,2015,0,N
PA5000710,0,8,17-Dec-2015,43.55,11,0,2015,0,N
PA5000713,0,8,17-Dec-2015,42.28,1,0,2016,0,N
PA5000714,0,3,17-Dec-2015,-0.55,12,0,2015,0,N
PA5000715,0,3,17-Dec-2015,0.22,12,0,2015,0,N
PA5000719,0,3,17-Dec-2015,0.43,12,0,2015,0,N
PA5000720,0,3,17-Dec-2015,-2.50,12,0,2015,0,N
PA5000721,0,8,17-Dec-2015,48.94,10,0,2015,0,N
PA5000722,0,3,17-Dec-2015,-2.00,12,0,2015,0,N
PA5000723,0,3,17-Dec-2015,-9.75,10,0,2011,0,N
PA5000726,0,3,17-Dec-2015,3.20,11,0,2015,0,N
PA5000726,0,8,17-Dec-2015,44.99,11,0,2015,0,N
PA5000728,0,8,17-Dec-2015,39.40,11,0,2015,0,N
PA5000729,0,8,17-Dec-2015,40.02,11,0,2015,0,N
PA5000731,0,3,17-Dec-2015,-0.20,12,0,2015,0,N
PA5000732,0,3,17-Dec-2015,-4.65,1,0,2016,0,N
PA5000733,0,8,17-Dec-2015,45.94,11,0,2015,0,N
PA5000734,0,3,17-Dec-2015,0.05,12,0,2015,0,N
PA5000735,0,3,17-Dec-2015,-0.65,1,0,2016,0,N
PA5000736,0,3,17-Dec-2015,-3.40,1,0,2016,0,N
PA5000737,0,3,17-Dec-2015,-4.75,1,0,2016,0,N
PA5000738,0,3,17-Dec-2015,-6.55,1,0,2016,0,N
PA5000739,0,3,17-Dec-2015,2.90,1,0,2016,0,N
PA5000740,0,3,17-Dec-2015,1.00,1,0,2016,0,N
PA5000741,0,3,17-Dec-2015,-1.20,12,0,2015,0,N
PA5000743,0,3,17-Dec-2015,-0.70,12,0,2015,0,N
PA5000745,0,3,17-Dec-2015,0.94,12,0,2015,0,N
PA5000746,0,3,17-Dec-2015,1.18,12,0,2015,0,N
PA5000747,0,8,17-Dec-2015,40.50,11,0,2015,0,N
PA5000748,0,3,17-Dec-2015,-3.13,1,0,2016,0,N
PA5000749,0,3,17-Dec-2015,-3.30,1,0,2016,0,N
PA5000750,0,3,17-Dec-2015,-4.70,1,0,2016,0,N
PA5000751,0,3,17-Dec-2015,-4.50,1,0,2016,0,N
PA5000752,0,3,17-Dec-2015,-4.55,1,0,2016,0,N
PA5000753,0,3,17-Dec-2015,-5.95,1,0,2016,0,N
PA5000754,0,3,17-Dec-2015,-5.75,1,0,2016,0,N
PA5000755,0,3,17-Dec-2015,-4.30,1,0,2016,0,N
PA5000756,0,3,17-Dec-2015,-6.00,1,0,2016,0,N
PA5000757,0,3,17-Dec-2015,-5.80,1,0,2016,0,N
PA5000765,0,20,17-Dec-2015,145.00,0,0,2015,0,N
PA5000766,0,20,17-Dec-2015,150.00,0,0,2015,0,N
PA5000767,0,20,17-Dec-2015,155.00,0,0,2015,0,N
PA5000768,0,20,17-Dec-2015,105.00,0,0,2015,0,N
PA5000769,0,20,17-Dec-2015,112.50,0,0,2015,0,N
PA5000770,0,20,17-Dec-2015,112.50,0,0,2015,0,N
PA5000771,0,20,17-Dec-2015,105.00,0,0,2015,0,N
PA5000772,0,20,17-Dec-2015,137.50,0,0,2015,0,N
PA5000773,0,20,17-Dec-2015,137.50,0,0,2015,0,N
PA5000774,0,20,17-Dec-2015,140.00,0,0,2015,0,N
PA5000775,0,20,17-Dec-2015,112.50,0,0,2015,0,N
PA5000776,0,20,17-Dec-2015,88.00,0,0,2015,0,N
PA5000777,0,20,17-Dec-2015,54.50,0,0,2015,0,N
PA5000778,0,20,17-Dec-2015,50.00,0,0,2015,0,N
PA5000779,0,20,17-Dec-2015,67.50,0,0,2015,0,N
PA5000780,0,20,17-Dec-2015,112.50,0,0,2015,0,N
PA5000781,0,20,17-Dec-2015,105.00,0,0,2015,0,N
PA5000782,0,20,17-Dec-2015,82.50,0,0,2015,0,N
PA5000783,0,20,17-Dec-2015,75.00,0,0,2015,0,N
PA5000784,0,20,17-Dec-2015,80.00,0,0,2015,0,N
PA5000785,0,20,17-Dec-2015,130.00,0,0,2015,0,N
PA5000786,0,20,17-Dec-2015,110.00,0,0,2015,0,N
PA5000787,0,20,17-Dec-2015,100.00,0,0,2015,0,N
PA5000788,0,20,17-Dec-2015,120.00,0,0,2015,0,N
PA5000789,0,20,17-Dec-2015,132.50,0,0,2015,0,N
PA5000790,0,20,17-Dec-2015,95.00,0,0,2015,0,N
PA5000791,0,20,17-Dec-2015,85.00,0,0,2015,0,N
PA5000792,0,20,17-Dec-2015,7.44,0,0,2015,0,N
PA5000793,0,20,17-Dec-2015,12.12,0,0,2015,0,N
PA5000794,0,20,17-Dec-2015,13.80,0,0,2015,0,N
PA5000795,0,20,17-Dec-2015,18.35,0,0,2015,0,N
PA5000796,0,20,17-Dec-2015,27.08,0,0,2015,0,N
PA5000797,0,20,17-Dec-2015,13.45,0,0,2015,0,N
PA5000798,0,20,17-Dec-2015,15.94,0,0,2015,0,N
PA5000799,0,20,17-Dec-2015,6.28,0,0,2015,0,N
PA5000800,0,20,17-Dec-2015,9.89,0,0,2015,0,N
PA5000801,0,20,17-Dec-2015,10.53,0,0,2015,0,N
PA5000802,0,20,17-Dec-2015,25.38,0,0,2015,0,N
PA5000803,0,20,17-Dec-2015,42.82,0,0,2015,0,N
PA5000804,0,20,17-Dec-2015,21.11,0,0,2015,0,N
PA5000805,0,20,17-Dec-2015,21.11,0,0,2015,0,N
PA5000806,0,20,17-Dec-2015,7.23,0,0,2015,0,N
PA5000807,0,20,17-Dec-2015,16.11,0,0,2015,0,N
PA5000808,0,20,17-Dec-2015,9.81,0,0,2015,0,N
PA5000809,0,20,17-Dec-2015,23.92,0,0,2015,0,N
PA5000810,0,20,17-Dec-2015,18.73,0,0,2015,0,N
PA5000811,0,20,17-Dec-2015,8.18,0,0,2015,0,N
PA5000812,0,20,17-Dec-2015,24.86,0,0,2015,0,N
PA5000813,0,20,17-Dec-2015,10.13,0,0,2015,0,N
PA5000814,0,20,17-Dec-2015,15.49,0,0,2015,0,N
PA5000815,0,20,17-Dec-2015,10.76,0,0,2015,0,N
PA5000816,0,20,17-Dec-2015,13.87,0,0,2015,0,N
PA5000817,0,20,17-Dec-2015,19.15,0,0,2015,0,N
PA5000818,0,20,17-Dec-2015,19.09,0,0,2015,0,N
PA5000891,0,3,17-Dec-2015,-10.85,1,0,2016,0,N
PA5000892,0,3,17-Dec-2015,-10.85,1,0,2016,0,N
PA5000893,0,3,17-Dec-2015,-9.95,1,0,2016,0,N
PA5000894,0,3,17-Dec-2015,-9.95,1,0,2016,0,N
PA5001068,0,3,17-Dec-2015,0.05,12,0,2015,0,N
PA5001069,0,3,17-Dec-2015,0.02,12,0,2015,0,N
PA5001070,0,3,17-Dec-2015,-1.00,12,0,2015,0,N
PA5001071,0,3,17-Dec-2015,0.61,12,0,2015,0,N
PA5001072,0,3,17-Dec-2015,-0.26,12,0,2015,0,N
PA5001073,0,3,17-Dec-2015,0.82,12,0,2015,0,N
PA5001074,0,3,17-Dec-2015,-2.23,12,0,2015,0,N
PA5001075,0,3,17-Dec-2015,0.82,12,0,2015,0,N
PA5001080,6,1,17-Dec-2015,415.75,0,0,2015,0,N
PA5001080,6,2,17-Dec-2015,416.25,0,0,2015,0,N
PA5001085,6,1,17-Dec-2015,421.50,0,0,2015,0,N
PA5001085,6,2,17-Dec-2015,422.00,0,0,2015,0,N
PA5001088,6,1,17-Dec-2015,410.75,0,0,2015,0,N
PA5001088,6,2,17-Dec-2015,411.25,0,0,2015,0,N
PA5001103,2,4,17-Dec-2015,32.98,1,1,2016,1,N
PA5001103,2,49,17-Dec-2015,-1.97,1,1,2016,1,N
PA5001125,0,20,17-Dec-2015,34.81,0,0,2015,0,N
PA5001126,0,20,17-Dec-2015,56.00,0,0,2015,0,N
PA5001222,2,4,17-Dec-2015,23.91,2,2,2016,0,N
PA5001222,2,49,17-Dec-2015,-13.80,2,2,2016,0,N
PA5001226,2,4,17-Dec-2015,32.97,1,1,2016,1,N
PA5001226,2,49,17-Dec-2015,-1.980,1,1,2016,1,N
PA5001230,2,4,17-Dec-2015,36.48,1,1,2016,1,N
PA5001230,2,49,17-Dec-2015,1.530,1,1,2016,1,N
PA5001234,2,4,17-Dec-2015,35.29,1,1,2016,1,N
PA5001234,2,49,17-Dec-2015,0.340,1,1,2016,1,N
PA5001242,2,4,17-Dec-2015,35.43,1,1,2016,1,N
PA5001242,2,49,17-Dec-2015,0.480,1,1,2016,1,N
PA5001246,2,4,17-Dec-2015,36.69,1,1,2016,1,N
PA5001246,2,49,17-Dec-2015,1.740,1,1,2016,1,N
PA5001283,6,1,17-Dec-2015,38.97,0,0,2015,0,N
PA5001283,6,2,17-Dec-2015,39.07,0,0,2015,0,N
PA5001320,0,3,17-Dec-2015,-8.11,12,0,2015,0,N
PA5001325,8,8,17-Dec-2015,26.750,0,0,2015,0,N
PA5001330,8,1,17-Dec-2015,144.00,0,0,2015,0,N
PA5001330,8,2,17-Dec-2015,147.00,0,0,2015,0,N
PA5001351,2,3,17-Dec-2015,-11.965,0,3,2015,0,N
PA5001351,2,8,17-Dec-2015,25.50,0,3,2015,0,N
PA5001372,2,1,17-Dec-2015,36.06,2,2,2016,1,N
PA5001372,2,2,17-Dec-2015,36.36,2,2,2016,1,N
PA5001372,2,6,17-Dec-2015,-1.65,2,2,2016,1,N
PA5001372,2,7,17-Dec-2015,-1.35,2,2,2016,1,N
PA5001394,2,1,17-Dec-2015,129.62,0,1,2015,0,N
PA5001394,2,2,17-Dec-2015,130.13,0,1,2015,0,N
PA5001394,2,3,17-Dec-2015,3.715,0,1,2015,0,N
PA5001394,2,6,17-Dec-2015,3.46,0,1,2015,0,N
PA5001394,2,7,17-Dec-2015,3.97,0,1,2015,0,N
PA5001394,2,8,17-Dec-2015,129.875,0,1,2015,0,N
PA5001456,8,1,17-Dec-2015,36.05,2,0,2016,0,N
PA5001456,8,2,17-Dec-2015,36.15,2,0,2016,0,N
PA5001456,8,3,17-Dec-2015,0.90,2,0,2016,0,N
PA5001456,8,8,17-Dec-2015,36.10,2,0,2016,0,N
PA5001466,0,8,17-Dec-2015,43.05,11,0,2015,0,N
PA5001478,6,8,17-Dec-2015,326.750,0,1,2015,0,N
PA5001538,8,1,17-Dec-2015,30.12,2,2,2016,1,N
PA5001538,8,2,17-Dec-2015,30.22,2,2,2016,1,N
PA5001538,8,3,17-Dec-2015,0.600,2,2,2016,1,N
PA5001542,8,1,17-Dec-2015,25.42,2,2,2016,1,N
PA5001542,8,2,17-Dec-2015,25.52,2,2,2016,1,N
PA5001542,8,3,17-Dec-2015,0.650,2,2,2016,1,N
PA0013037,0,18,18-Dec-2015,39.67,0,0,2015,0,N
PA0013037,0,19,18-Dec-2015,40.75,0,0,2015,0,N
PA0013037,0,50,18-Dec-2015,2.62,0,0,2015,0,N
PA0013038,0,18,18-Dec-2015,38.59,0,0,2015,0,N
PA0013038,0,19,18-Dec-2015,43.02,0,0,2015,0,N
PA0013038,0,50,18-Dec-2015,2.64,0,0,2015,0,N
PA0013039,0,18,18-Dec-2015,39.99,0,0,2015,0,N
PA0013039,0,19,18-Dec-2015,41.03,0,0,2015,0,N
PA0013039,0,50,18-Dec-2015,4.00,0,0,2015,0,N
PA0013040,0,18,18-Dec-2015,47.62,0,0,2015,0,N
PA0013040,0,19,18-Dec-2015,48.66,0,0,2015,0,N
PA0013040,0,50,18-Dec-2015,11.63,0,0,2015,0,N
PA0013041,0,18,18-Dec-2015,41.52,0,0,2015,0,N
PA0013041,0,19,18-Dec-2015,45.95,0,0,2015,0,N
PA0013041,0,50,18-Dec-2015,5.57,0,0,2015,0,N
PA0013042,0,18,18-Dec-2015,42.77,0,0,2015,0,N
PA0013042,0,19,18-Dec-2015,43.85,0,0,2015,0,N
PA0013042,0,50,18-Dec-2015,5.72,0,0,2015,0,N
PA0013043,0,18,18-Dec-2015,40.03,0,0,2015,0,N
PA0013043,0,19,18-Dec-2015,41.07,0,0,2015,0,N
PA0013043,0,50,18-Dec-2015,3.16,0,0,2015,0,N
PA0013044,0,18,18-Dec-2015,39.29,0,0,2015,0,N
PA0013044,0,19,18-Dec-2015,39.29,0,0,2015,0,N
PA0013044,0,50,18-Dec-2015,5.38,0,0,2015,0,N
PA0013045,0,18,18-Dec-2015,38.17,0,0,2015,0,N
PA0013045,0,19,18-Dec-2015,41.14,0,0,2015,0,N
PA0013045,0,50,18-Dec-2015,4.72,0,0,2015,0,N
PA0013046,0,18,18-Dec-2015,44.98,0,0,2015,0,N
PA0013046,0,19,18-Dec-2015,47.95,0,0,2015,0,N
PA0013046,0,50,18-Dec-2015,11.54,0,0,2015,0,N
PA0013047,0,18,18-Dec-2015,44.02,0,0,2015,0,N
PA0013047,0,19,18-Dec-2015,44.02,0,0,2015,0,N
PA0013047,0,50,18-Dec-2015,10.11,0,0,2015,0,N
PA0013048,0,18,18-Dec-2015,42.71,0,0,2015,0,N
PA0013048,0,19,18-Dec-2015,43.75,0,0,2015,0,N
PA0013048,0,50,18-Dec-2015,5.84,0,0,2015,0,N
PA0013049,0,18,18-Dec-2015,39.25,0,0,2015,0,N
PA0013049,0,19,18-Dec-2015,39.25,0,0,2015,0,N
PA0013049,0,50,18-Dec-2015,4.81,0,0,2015,0,N
PA0013050,0,18,18-Dec-2015,34.61,0,0,2015,0,N
PA0013050,0,19,18-Dec-2015,37.78,0,0,2015,0,N
PA0013050,0,50,18-Dec-2015,3.40,0,0,2015,0,N
PA0013051,0,18,18-Dec-2015,35.96,0,0,2015,0,N
PA0013051,0,19,18-Dec-2015,38.98,0,0,2015,0,N
PA0013051,0,50,18-Dec-2015,4.75,0,0,2015,0,N
PA0013052,0,18,18-Dec-2015,44.49,0,0,2015,0,N
PA0013052,0,19,18-Dec-2015,47.51,0,0,2015,0,N
PA0013052,0,50,18-Dec-2015,13.29,0,0,2015,0,N
PA0013053,0,18,18-Dec-2015,40.43,0,0,2015,0,N
PA0013053,0,19,18-Dec-2015,43.61,0,0,2015,0,N
PA0013053,0,50,18-Dec-2015,9.23,0,0,2015,0,N
PA0013054,0,18,18-Dec-2015,42.04,0,0,2015,0,N
PA0013054,0,19,18-Dec-2015,42.04,0,0,2015,0,N
PA0013054,0,50,18-Dec-2015,7.59,0,0,2015,0,N
PA0013055,0,18,18-Dec-2015,39.57,0,0,2015,0,N
PA0013055,0,19,18-Dec-2015,41.59,0,0,2015,0,N
PA0013055,0,50,18-Dec-2015,2.44,0,0,2015,0,N
PA0013056,0,18,18-Dec-2015,42.54,0,0,2015,0,N
PA0013056,0,19,18-Dec-2015,42.54,0,0,2015,0,N
PA0013056,0,50,18-Dec-2015,4.93,0,0,2015,0,N
PA0013057,0,18,18-Dec-2015,42.54,0,0,2015,0,N
PA0013057,0,19,18-Dec-2015,43.73,0,0,2015,0,N
PA0013057,0,50,18-Dec-2015,3.42,0,0,2015,0,N
PA0013058,0,18,18-Dec-2015,47.64,0,0,2015,0,N
PA0013058,0,19,18-Dec-2015,48.84,0,0,2015,0,N
PA0013058,0,50,18-Dec-2015,8.52,0,0,2015,0,N
PA0013059,0,18,18-Dec-2015,44.91,0,0,2015,0,N
PA0013059,0,19,18-Dec-2015,44.91,0,0,2015,0,N
PA0013059,0,50,18-Dec-2015,7.30,0,0,2015,0,N
PA0013060,0,18,18-Dec-2015,40.86,0,0,2015,0,N
PA0013060,0,19,18-Dec-2015,42.88,0,0,2015,0,N
PA0013060,0,50,18-Dec-2015,3.73,0,0,2015,0,N
PA0013061,0,18,18-Dec-2015,38.70,0,0,2015,0,N
PA0013061,0,19,18-Dec-2015,40.47,0,0,2015,0,N
PA0013061,0,50,18-Dec-2015,1.67,0,0,2015,0,N
PA0013062,0,18,18-Dec-2015,40.59,0,0,2015,0,N
PA0013062,0,19,18-Dec-2015,43.03,0,0,2015,0,N
PA0013062,0,50,18-Dec-2015,3.47,0,0,2015,0,N
PA0013063,0,18,18-Dec-2015,41.59,0,0,2015,0,N
PA0013063,0,19,18-Dec-2015,44.43,0,0,2015,0,N
PA0013063,0,50,18-Dec-2015,3.61,0,0,2015,0,N
PA0013064,0,18,18-Dec-2015,46.45,0,0,2015,0,N
PA0013064,0,19,18-Dec-2015,49.29,0,0,2015,0,N
PA0013064,0,50,18-Dec-2015,8.47,0,0,2015,0,N
PA0013065,0,18,18-Dec-2015,42.00,0,0,2015,0,N
PA0013065,0,19,18-Dec-2015,44.43,0,0,2015,0,N
PA0013065,0,50,18-Dec-2015,4.87,0,0,2015,0,N
PA0013066,0,18,18-Dec-2015,42.29,0,0,2015,0,N
PA0013066,0,19,18-Dec-2015,44.05,0,0,2015,0,N
PA0013066,0,50,18-Dec-2015,5.26,0,0,2015,0,N
PA0013067,0,18,18-Dec-2015,33.59,0,0,2015,0,N
PA0013067,0,19,18-Dec-2015,36.26,0,0,2015,0,N
PA0013067,0,50,18-Dec-2015,2.38,0,0,2015,0,N
PA0013068,0,18,18-Dec-2015,32.21,0,0,2015,0,N
PA0013068,0,19,18-Dec-2015,34.58,0,0,2015,0,N
PA0013068,0,50,18-Dec-2015,4.65,0,0,2015,0,N
PA0013069,0,18,18-Dec-2015,38.94,0,0,2015,0,N
PA0013069,0,19,18-Dec-2015,41.90,0,0,2015,0,N
PA0013070,0,18,18-Dec-2015,45.24,0,0,2015,0,N
PA0013070,0,19,18-Dec-2015,48.21,0,0,2015,0,N
PA0013071,0,18,18-Dec-2015,40.43,0,0,2015,0,N
PA0013071,0,19,18-Dec-2015,42.79,0,0,2015,0,N
PA0013071,0,50,18-Dec-2015,12.87,0,0,2015,0,N
PA0013072,0,18,18-Dec-2015,37.84,0,0,2015,0,N
PA0013072,0,19,18-Dec-2015,40.51,0,0,2015,0,N
PA0013072,0,50,18-Dec-2015,6.64,0,0,2015,0,N
PA0013073,0,18,18-Dec-2015,36.62,0,0,2015,0,N
PA0013073,0,19,18-Dec-2015,39.69,0,0,2015,0,N
PA0013074,0,18,18-Dec-2015,43.14,0,0,2015,0,N
PA0013074,0,19,18-Dec-2015,46.21,0,0,2015,0,N
PA0013075,0,18,18-Dec-2015,36.07,0,0,2015,0,N
PA0013075,0,19,18-Dec-2015,38.69,0,0,2015,0,N
PA0013076,0,18,18-Dec-2015,39.01,0,0,2015,0,N
PA0013076,0,19,18-Dec-2015,41.63,0,0,2015,0,N
PA0013077,0,18,18-Dec-2015,33.05,0,0,2015,0,N
PA0013077,0,19,18-Dec-2015,35.75,0,0,2015,0,N
PA0013078,0,18,18-Dec-2015,35.58,0,0,2015,0,N
PA0013078,0,19,18-Dec-2015,38.29,0,0,2015,0,N
PA0013079,0,18,18-Dec-2015,37.78,0,0,2015,0,N
PA0013079,0,19,18-Dec-2015,40.90,0,0,2015,0,N
PA0013080,0,18,18-Dec-2015,41.18,0,0,2015,0,N
PA0013080,0,19,18-Dec-2015,44.29,0,0,2015,0,N
PA0013081,0,18,18-Dec-2015,36.28,0,0,2015,0,N
PA0013081,0,19,18-Dec-2015,39.38,0,0,2015,0,N
PA0013082,0,18,18-Dec-2015,40.84,0,0,2015,0,N
PA0013082,0,19,18-Dec-2015,43.94,0,0,2015,0,N
PA5000433,2,8,18-Dec-2015,36.54,0,0,2015,0,N
PA5000434,6,8,18-Dec-2015,40.20,0,0,2015,0,N
PA5000434,8,3,18-Dec-2015,3.20,0,0,2015,0,N
PA5000435,6,3,18-Dec-2015,0.24,0,0,2015,0,N
PA5000435,6,8,18-Dec-2015,37.24,0,0,2015,0,N
PA5000436,6,3,18-Dec-2015,-0.26,0,0,2015,0,N
PA5000436,6,8,18-Dec-2015,36.74,0,0,2015,0,N
PA5000438,6,3,18-Dec-2015,-1.40,0,0,2015,0,N
PA5000438,6,8,18-Dec-2015,35.60,0,0,2015,0,N
PA5000440,8,3,18-Dec-2015,0.00,0,0,2015,0,N
PA5000440,8,8,18-Dec-2015,33.47,0,0,2015,0,N
PA5000441,6,8,18-Dec-2015,39.18,0,0,2015,0,N
PA5000441,8,3,18-Dec-2015,2.18,0,0,2015,0,N
PA5000443,6,3,18-Dec-2015,0.23,0,0,2015,0,N
PA5000443,6,8,18-Dec-2015,37.23,0,0,2015,0,N
PA5000446,8,3,18-Dec-2015,1.10,0,0,2015,0,N
PA5000446,8,8,18-Dec-2015,32.57,0,0,2015,0,N
PA5000447,6,3,18-Dec-2015,-1.70,0,0,2015,0,N
PA5000447,6,8,18-Dec-2015,35.30,0,0,2015,0,N
PA5000448,6,3,18-Dec-2015,0.14,0,0,2015,0,N
PA5000448,6,8,18-Dec-2015,37.14,0,0,2015,0,N
PA5000450,6,3,18-Dec-2015,-1.40,0,0,2015,0,N
PA5000450,6,8,18-Dec-2015,35.60,0,0,2015,0,N
PA5000451,6,3,18-Dec-2015,-0.17,0,0,2015,0,N
PA5000451,6,8,18-Dec-2015,36.83,0,0,2015,0,N
PA5000452,6,3,18-Dec-2015,0.12,0,0,2015,0,N
PA5000452,6,8,18-Dec-2015,37.12,0,0,2015,0,N
PA5000454,6,3,18-Dec-2015,-3.30,0,0,2015,0,N
PA5000454,6,8,18-Dec-2015,33.70,0,0,2015,0,N
PA5000455,6,3,18-Dec-2015,-1.93,0,0,2015,0,N
PA5000455,6,8,18-Dec-2015,35.07,0,0,2015,0,N
PA5000456,6,8,18-Dec-2015,39.18,0,0,2015,0,N
PA5000457,2,8,18-Dec-2015,34.48,0,0,2015,0,N
PA5000459,8,3,18-Dec-2015,2.00,0,0,2015,0,N
PA5000459,8,8,18-Dec-2015,35.47,0,0,2015,0,N
PA5000460,8,3,18-Dec-2015,1.05,0,0,2015,0,N
PA5000460,8,8,18-Dec-2015,37.39,0,0,2015,0,N
PA5000461,6,8,18-Dec-2015,40.60,0,0,2015,0,N
PA5000461,8,3,18-Dec-2015,3.60,0,0,2015,0,N
PA5000463,6,3,18-Dec-2015,1.12,0,0,2015,0,N
PA5000463,6,8,18-Dec-2015,38.12,0,0,2015,0,N
PA5000464,8,3,18-Dec-2015,0.70,0,0,2015,0,N
PA5000464,8,8,18-Dec-2015,35.89,0,0,2015,0,N
PA5000465,8,3,18-Dec-2015,0.19,0,0,2015,0,N
PA5000465,8,8,18-Dec-2015,32.43,0,0,2015,0,N
PA5000466,6,3,18-Dec-2015,0.48,0,0,2015,0,N
PA5000466,6,8,18-Dec-2015,37.48,0,0,2015,0,N
PA5000467,6,3,18-Dec-2015,0.51,0,0,2015,0,N
PA5000467,6,8,18-Dec-2015,37.51,0,0,2015,0,N
PA5000468,6,3,18-Dec-2015,0.50,0,0,2015,0,N
PA5000468,6,8,18-Dec-2015,37.50,0,0,2015,0,N
PA5000469,6,3,18-Dec-2015,0.35,0,0,2015,0,N
PA5000469,6,8,18-Dec-2015,37.35,0,0,2015,0,N
PA5000470,6,3,18-Dec-2015,-2.95,0,0,2015,0,N
PA5000470,6,8,18-Dec-2015,34.05,0,0,2015,0,N
PA5000473,6,3,18-Dec-2015,0.45,0,0,2015,0,N
PA5000473,6,8,18-Dec-2015,37.45,0,0,2015,0,N
PA5000474,6,3,18-Dec-2015,-1.25,0,0,2015,0,N
PA5000474,6,8,18-Dec-2015,35.75,0,0,2015,0,N
PA5000475,6,3,18-Dec-2015,-2.50,0,0,2015,0,N
PA5000475,6,8,18-Dec-2015,34.50,0,0,2015,0,N
PA5000476,8,3,18-Dec-2015,0.50,0,0,2015,0,N
PA5000476,8,8,18-Dec-2015,33.97,0,0,2015,0,N
PA5000478,6,8,18-Dec-2015,320.30,0,0,2015,0,N
PA5000479,6,8,18-Dec-2015,324.60,0,0,2015,0,N
PA5000480,2,8,18-Dec-2015,53.13,0,0,2015,0,N
PA5000481,6,8,18-Dec-2015,301.70,0,0,2015,0,N
PA5000482,6,8,18-Dec-2015,306.80,0,0,2015,0,N
PA5000483,2,8,18-Dec-2015,35.88,0,0,2015,0,N
PA5000484,6,8,18-Dec-2015,166.85,0,0,2015,0,N
PA5000485,6,8,18-Dec-2015,172.85,0,0,2015,0,N
PA5000486,6,8,18-Dec-2015,144.45,0,0,2015,0,N
PA5000487,6,8,18-Dec-2015,131.95,0,0,2015,0,N
PA5000488,2,8,18-Dec-2015,181.00,0,0,2015,0,N
PA5000489,8,8,18-Dec-2015,185.37,0,0,2015,0,N
PA5000490,8,8,18-Dec-2015,148.34,0,0,2015,0,N
PA5000491,8,8,18-Dec-2015,143.77,0,0,2015,0,N
PA5000494,2,8,18-Dec-2015,23.23,0,0,2015,0,N
PA5000496,2,8,18-Dec-2015,22.75,0,0,2015,0,N
PA5000498,2,8,18-Dec-2015,21.66,0,0,2015,0,N
PA5000499,8,8,18-Dec-2015,40.34,0,0,2015,0,N
PA5000500,2,8,18-Dec-2015,115.25,0,0,2015,0,N
PA5000501,6,8,18-Dec-2015,332.20,0,0,2015,0,N
PA5000502,6,8,18-Dec-2015,334.60,0,0,2015,0,N
PA5000503,6,8,18-Dec-2015,317.80,0,0,2015,0,N
PA5000504,6,8,18-Dec-2015,317.80,0,0,2015,0,N
PA5000505,8,8,18-Dec-2015,43.20,0,0,2015,0,N
PA5000506,8,8,18-Dec-2015,46.12,0,0,2015,0,N
PA5000509,2,8,18-Dec-2015,127.03,0,0,2015,0,N
PA5000510,2,8,18-Dec-2015,119.87,0,0,2015,0,N
PA5000513,2,8,18-Dec-2015,141.16,0,0,2015,0,N
PA5000514,2,8,18-Dec-2015,132.94,0,0,2015,0,N
PA5000515,8,8,18-Dec-2015,54.07,0,0,2015,0,N
PA5000517,8,8,18-Dec-2015,55.87,0,0,2015,0,N
PA5000520,8,8,18-Dec-2015,47.73,0,0,2015,0,N
PA5000521,8,8,18-Dec-2015,43.53,0,0,2015,0,N
PA5000522,6,8,18-Dec-2015,369.60,0,0,2015,0,N
PA5000523,8,8,18-Dec-2015,45.81,0,0,2015,0,N
PA5000524,2,8,18-Dec-2015,102.93,0,0,2015,0,N
PA5000525,6,8,18-Dec-2015,348.80,0,0,2015,0,N
PA5000526,2,8,18-Dec-2015,118.98,0,0,2015,0,N
PA5000527,2,8,18-Dec-2015,111.01,0,0,2015,0,N
PA5000529,6,8,18-Dec-2015,379.50,0,0,2015,0,N
PA5000530,6,8,18-Dec-2015,369.05,0,0,2015,0,N
PA5000531,8,8,18-Dec-2015,415.50,0,0,2015,0,N
PA5000532,8,8,18-Dec-2015,384.64,0,0,2015,0,N
PA5000533,2,8,18-Dec-2015,96.61,0,0,2015,0,N
PA5000534,2,8,18-Dec-2015,89.48,0,0,2015,0,N
PA5000535,6,8,18-Dec-2015,275.75,0,0,2015,0,N
PA5000536,6,8,18-Dec-2015,265.50,0,0,2015,0,N
PA5000537,6,8,18-Dec-2015,268.63,0,0,2015,0,N
PA5000538,6,3,18-Dec-2015,-1.70,0,0,2015,0,N
PA5000538,6,8,18-Dec-2015,35.30,0,0,2015,0,N
PA5000539,6,3,18-Dec-2015,-0.90,0,0,2015,0,N
PA5000539,6,8,18-Dec-2015,36.10,0,0,2015,0,N
PA5000540,6,3,18-Dec-2015,-1.20,0,0,2015,0,N
PA5000540,6,8,18-Dec-2015,37.00,0,0,2015,0,N
PA5000542,6,8,18-Dec-2015,37.31,0,0,2015,0,N
PA5000543,6,8,18-Dec-2015,37.63,0,0,2015,0,N
PA5000544,6,8,18-Dec-2015,38.33,0,0,2015,0,N
PA5000546,6,8,18-Dec-2015,32.87,0,0,2015,0,N
PA5000547,6,8,18-Dec-2015,33.63,0,0,2015,0,N
PA5000548,6,8,18-Dec-2015,34.61,0,0,2015,0,N
PA5000549,8,3,18-Dec-2015,-1.61,0,0,2015,0,N
PA5000549,8,8,18-Dec-2015,32.86,0,0,2015,0,N
PA5000550,9,8,18-Dec-2015,35.77,0,0,2015,0,N
PA5000551,9,8,18-Dec-2015,37.04,0,0,2015,0,N
PA5000552,9,8,18-Dec-2015,38.18,0,0,2015,0,N
PA5000556,2,8,18-Dec-2015,162.46,0,0,2015,0,N
PA5000644,2,8,18-Dec-2015,128.70,0,0,2015,0,N
PA5000654,8,3,18-Dec-2015,0.78,0,0,2015,0,N
PA5000654,8,8,18-Dec-2015,44.87,0,0,2015,0,N
PA5000759,2,8,18-Dec-2015,114.15,0,0,2015,0,N
PA5000762,2,8,18-Dec-2015,101.36,0,0,2015,0,N
PA5000819,6,6,18-Dec-2015,-6.00,0,0,2015,0,N
PA5000819,6,7,18-Dec-2015,-5.50,0,0,2015,0,N
PA5001081,6,1,18-Dec-2015,421.25,0,0,2015,0,N
PA5001081,6,2,18-Dec-2015,421.75,0,0,2015,0,N
PA5001086,6,1,18-Dec-2015,427.05,0,0,2015,0,N
PA5001086,6,2,18-Dec-2015,427.55,0,0,2015,0,N
PA5001093,8,1,18-Dec-2015,168.85,0,0,2015,0,N
PA5001093,8,2,18-Dec-2015,169.85,0,0,2015,0,N
PA5001093,8,6,18-Dec-2015,-3.30,0,0,2015,0,N
PA5001093,8,7,18-Dec-2015,-2.30,0,0,2015,0,N
PA5001095,8,1,18-Dec-2015,44.94,0,0,2015,0,N
PA5001095,8,2,18-Dec-2015,45.05,0,0,2015,0,N
PA5001095,8,6,18-Dec-2015,0.38,0,0,2015,0,N
PA5001095,8,7,18-Dec-2015,0.58,0,0,2015,0,N
PA5001102,0,3,18-Dec-2015,-0.50,0,0,2015,0,N
PA5001110,8,1,18-Dec-2015,164.25,0,0,2015,0,N
PA5001110,8,2,18-Dec-2015,165.25,0,0,2015,0,N
PA5001110,8,6,18-Dec-2015,-2.05,0,0,2015,0,N
PA5001110,8,7,18-Dec-2015,-1.05,0,0,2015,0,N
PA5001223,2,4,18-Dec-2015,24.40,0,0,2015,0,N
PA5001223,2,49,18-Dec-2015,-13.64,0,0,2015,0,N
PA5001229,2,4,18-Dec-2015,33.63,0,0,2015,0,N
PA5001229,2,49,18-Dec-2015,-2.140,0,0,2015,0,N
PA5001233,2,4,18-Dec-2015,37.23,0,0,2015,0,N
PA5001233,2,49,18-Dec-2015,1.458,0,0,2015,0,N
PA5001237,2,4,18-Dec-2015,35.96,0,0,2015,0,N
PA5001237,2,49,18-Dec-2015,0.186,0,0,2015,0,N
PA5001245,2,4,18-Dec-2015,36.23,0,0,2015,0,N
PA5001245,2,49,18-Dec-2015,0.462,0,0,2015,0,N
PA5001249,2,4,18-Dec-2015,37.37,0,0,2015,0,N
PA5001249,2,49,18-Dec-2015,1.600,0,0,2015,0,N
PA5001286,6,1,18-Dec-2015,39.37,0,0,2015,0,N
PA5001286,6,2,18-Dec-2015,39.47,0,0,2015,0,N
PA5001310,8,1,18-Dec-2015,38.48,0,0,2015,0,N
PA5001310,8,2,18-Dec-2015,38.58,0,0,2015,0,N
PA5001310,8,3,18-Dec-2015,4.670,0,0,2015,0,N
PA5001313,2,1,18-Dec-2015,148.85,0,0,2015,0,N
PA5001313,2,2,18-Dec-2015,151.10,0,0,2015,0,N
PA5001323,8,8,18-Dec-2015,27.580,0,0,2015,0,N
PA5001329,8,1,18-Dec-2015,38.08,0,2,2015,0,N
PA5001329,8,2,18-Dec-2015,38.18,0,2,2015,0,N
PA5001329,8,3,18-Dec-2015,4.100,0,2,2015,0,N
PA5001331,8,1,18-Dec-2015,146.95,0,0,2015,0,N
PA5001331,8,2,18-Dec-2015,149.55,0,0,2015,0,N
PA5001354,2,8,18-Dec-2015,31.26,0,0,2015,0,N
PA5001375,2,1,18-Dec-2015,36.42,0,0,2015,0,N
PA5001375,2,2,18-Dec-2015,36.72,0,0,2015,0,N
PA5001375,2,6,18-Dec-2015,-1.62,0,0,2015,0,N
PA5001375,2,7,18-Dec-2015,-1.32,0,0,2015,0,N
PA5001459,8,3,18-Dec-2015,0.90,0,0,2015,0,N
PA5001459,8,8,18-Dec-2015,36.74,0,0,2015,0,N
PA5001464,8,8,18-Dec-2015,38.550,0,0,2015,0,N
PA5001465,8,8,18-Dec-2015,33.180,0,0,2015,0,N
PA5001512,0,3,18-Dec-2015,-8.20,1,0,2016,0,N
PA5001513,0,3,18-Dec-2015,-10.30,1,0,2016,0,N
PA5001514,0,3,18-Dec-2015,-6.25,1,0,2016,0,N
PA5001541,8,1,18-Dec-2015,30.63,0,0,2015,0,N
PA5001541,8,2,18-Dec-2015,30.73,0,0,2015,0,N
PA5001541,8,3,18-Dec-2015,0.480,0,0,2015,0,N
PA5001545,8,1,18-Dec-2015,25.86,0,0,2015,0,N
PA5001545,8,2,18-Dec-2015,25.96,0,0,2015,0,N
PA5001545,8,3,18-Dec-2015,0.460,0,0,2015,0,N
PA0002006,0,29,22-Dec-2015,2057.00,0,0,2015,0,N
PA0003467,0,29,22-Dec-2015,679.00,0,0,2015,0,N
PA0003469,0,29,22-Dec-2015,1646.00,0,0,2015,0,N
PA0003473,0,29,22-Dec-2015,998.00,0,0,2015,0,N
PA0003475,0,29,22-Dec-2015,354.00,0,0,2015,0,N
PA0004007,0,29,22-Dec-2015,367.00,0,0,2015,0,N
PA0002007,0,29,23-Dec-2015,1884.10,0,0,2015,0,N
PA0003463,0,1,23-Dec-2015,331.25,0,0,2015,0,N
PA0003463,0,2,23-Dec-2015,332.25,0,0,2015,0,N
PA0003464,0,1,23-Dec-2015,396.75,0,0,2015,0,N
PA0003464,0,2,23-Dec-2015,397.25,0,0,2015,0,N
PA0003465,0,1,23-Dec-2015,363.12,0,0,2015,0,N
PA0003465,0,2,23-Dec-2015,368.19,0,0,2015,0,N
PA0003466,0,1,23-Dec-2015,438.18,0,0,2015,0,N
PA0003466,0,2,23-Dec-2015,441.22,0,0,2015,0,N
PA0003468,0,29,23-Dec-2015,2435.53,0,0,2015,0,N
PA0003472,0,29,23-Dec-2015,1597.61,0,0,2015,0,N
PA0003474,0,29,23-Dec-2015,507.10,0,0,2015,0,N
PA0004006,0,29,23-Dec-2015,608.65,0,0,2015,0,N
PA0013037,0,18,24-Dec-2015,39.06,0,0,2015,0,N
PA0013037,0,19,24-Dec-2015,40.12,0,0,2015,0,N
PA0013037,0,50,24-Dec-2015,2.38,0,0,2015,0,N
PA0013038,0,18,24-Dec-2015,37.90,0,0,2015,0,N
PA0013038,0,19,24-Dec-2015,42.33,0,0,2015,0,N
PA0013038,0,50,24-Dec-2015,2.45,0,0,2015,0,N
PA0013039,0,18,24-Dec-2015,38.81,0,0,2015,0,N
PA0013039,0,19,24-Dec-2015,39.79,0,0,2015,0,N
PA0013039,0,50,24-Dec-2015,4.19,0,0,2015,0,N
PA0013040,0,18,24-Dec-2015,45.96,0,0,2015,0,N
PA0013040,0,19,24-Dec-2015,46.94,0,0,2015,0,N
PA0013040,0,50,24-Dec-2015,11.34,0,0,2015,0,N
PA0013041,0,18,24-Dec-2015,40.85,0,0,2015,0,N
PA0013041,0,19,24-Dec-2015,45.28,0,0,2015,0,N
PA0013041,0,50,24-Dec-2015,5.40,0,0,2015,0,N
PA0013042,0,18,24-Dec-2015,41.85,0,0,2015,0,N
PA0013042,0,19,24-Dec-2015,42.91,0,0,2015,0,N
PA0013042,0,50,24-Dec-2015,5.17,0,0,2015,0,N
PA0013043,0,18,24-Dec-2015,39.34,0,0,2015,0,N
PA0013043,0,19,24-Dec-2015,40.36,0,0,2015,0,N
PA0013043,0,50,24-Dec-2015,2.46,0,0,2015,0,N
PA0013044,0,18,24-Dec-2015,38.25,0,0,2015,0,N
PA0013044,0,19,24-Dec-2015,38.25,0,0,2015,0,N
PA0013044,0,50,24-Dec-2015,5.16,0,0,2015,0,N
PA0013045,0,18,24-Dec-2015,36.70,0,0,2015,0,N
PA0013045,0,19,24-Dec-2015,39.78,0,0,2015,0,N
PA0013045,0,50,24-Dec-2015,4.80,0,0,2015,0,N
PA0013046,0,18,24-Dec-2015,43.17,0,0,2015,0,N
PA0013046,0,19,24-Dec-2015,46.24,0,0,2015,0,N
PA0013046,0,50,24-Dec-2015,11.27,0,0,2015,0,N
PA0013047,0,18,24-Dec-2015,43.33,0,0,2015,0,N
PA0013047,0,19,24-Dec-2015,43.33,0,0,2015,0,N
PA0013047,0,50,24-Dec-2015,10.24,0,0,2015,0,N
PA0013048,0,18,24-Dec-2015,41.74,0,0,2015,0,N
PA0013048,0,19,24-Dec-2015,42.75,0,0,2015,0,N
PA0013048,0,50,24-Dec-2015,4.86,0,0,2015,0,N
PA0013049,0,18,24-Dec-2015,38.71,0,0,2015,0,N
PA0013049,0,19,24-Dec-2015,38.71,0,0,2015,0,N
PA0013049,0,50,24-Dec-2015,5.00,0,0,2015,0,N
PA0013050,0,18,24-Dec-2015,33.95,0,0,2015,0,N
PA0013050,0,19,24-Dec-2015,37.19,0,0,2015,0,N
PA0013050,0,50,24-Dec-2015,4.19,0,0,2015,0,N
PA0013051,0,18,24-Dec-2015,34.57,0,0,2015,0,N
PA0013051,0,19,24-Dec-2015,37.70,0,0,2015,0,N
PA0013051,0,50,24-Dec-2015,4.80,0,0,2015,0,N
PA0013052,0,18,24-Dec-2015,42.71,0,0,2015,0,N
PA0013052,0,19,24-Dec-2015,45.84,0,0,2015,0,N
PA0013052,0,50,24-Dec-2015,12.94,0,0,2015,0,N
PA0013053,0,18,24-Dec-2015,39.63,0,0,2015,0,N
PA0013053,0,19,24-Dec-2015,42.87,0,0,2015,0,N
PA0013053,0,50,24-Dec-2015,9.87,0,0,2015,0,N
PA0013054,0,18,24-Dec-2015,41.21,0,0,2015,0,N
PA0013054,0,19,24-Dec-2015,41.21,0,0,2015,0,N
PA0013054,0,50,24-Dec-2015,7.50,0,0,2015,0,N
PA0013055,0,18,24-Dec-2015,39.02,0,0,2015,0,N
PA0013055,0,19,24-Dec-2015,41.07,0,0,2015,0,N
PA0013055,0,50,24-Dec-2015,2.39,0,0,2015,0,N
PA0013056,0,18,24-Dec-2015,42.11,0,0,2015,0,N
PA0013056,0,19,24-Dec-2015,42.11,0,0,2015,0,N
PA0013056,0,50,24-Dec-2015,5.26,0,0,2015,0,N
PA0013057,0,18,24-Dec-2015,41.39,0,0,2015,0,N
PA0013057,0,19,24-Dec-2015,42.46,0,0,2015,0,N
PA0013057,0,50,24-Dec-2015,3.86,0,0,2015,0,N
PA0013058,0,18,24-Dec-2015,46.08,0,0,2015,0,N
PA0013058,0,19,24-Dec-2015,47.16,0,0,2015,0,N
PA0013058,0,50,24-Dec-2015,8.55,0,0,2015,0,N
PA0013059,0,18,24-Dec-2015,44.79,0,0,2015,0,N
PA0013059,0,19,24-Dec-2015,44.79,0,0,2015,0,N
PA0013059,0,50,24-Dec-2015,7.94,0,0,2015,0,N
PA0013060,0,18,24-Dec-2015,39.90,0,0,2015,0,N
PA0013060,0,19,24-Dec-2015,41.95,0,0,2015,0,N
PA0013060,0,50,24-Dec-2015,3.27,0,0,2015,0,N
PA0013061,0,18,24-Dec-2015,38.21,0,0,2015,0,N
PA0013061,0,19,24-Dec-2015,39.98,0,0,2015,0,N
PA0013061,0,50,24-Dec-2015,1.72,0,0,2015,0,N
PA0013062,0,18,24-Dec-2015,40.09,0,0,2015,0,N
PA0013062,0,19,24-Dec-2015,42.54,0,0,2015,0,N
PA0013062,0,50,24-Dec-2015,3.46,0,0,2015,0,N
PA0013063,0,18,24-Dec-2015,40.22,0,0,2015,0,N
PA0013063,0,19,24-Dec-2015,43.16,0,0,2015,0,N
PA0013063,0,50,24-Dec-2015,4.05,0,0,2015,0,N
PA0013064,0,18,24-Dec-2015,44.68,0,0,2015,0,N
PA0013064,0,19,24-Dec-2015,47.62,0,0,2015,0,N
PA0013064,0,50,24-Dec-2015,8.52,0,0,2015,0,N
PA0013065,0,18,24-Dec-2015,41.74,0,0,2015,0,N
PA0013065,0,19,24-Dec-2015,44.19,0,0,2015,0,N
PA0013065,0,50,24-Dec-2015,5.11,0,0,2015,0,N
PA0013066,0,18,24-Dec-2015,41.36,0,0,2015,0,N
PA0013066,0,19,24-Dec-2015,43.13,0,0,2015,0,N
PA0013066,0,50,24-Dec-2015,4.87,0,0,2015,0,N
PA0013067,0,18,24-Dec-2015,33.07,0,0,2015,0,N
PA0013067,0,19,24-Dec-2015,35.79,0,0,2015,0,N
PA0013067,0,50,24-Dec-2015,3.31,0,0,2015,0,N
PA0013068,0,18,24-Dec-2015,31.16,0,0,2015,0,N
PA0013068,0,19,24-Dec-2015,33.16,0,0,2015,0,N
PA0013068,0,50,24-Dec-2015,3.91,0,0,2015,0,N
PA0013069,0,18,24-Dec-2015,37.58,0,0,2015,0,N
PA0013069,0,19,24-Dec-2015,40.66,0,0,2015,0,N
PA0013070,0,18,24-Dec-2015,43.47,0,0,2015,0,N
PA0013070,0,19,24-Dec-2015,46.55,0,0,2015,0,N
PA0013071,0,18,24-Dec-2015,40.05,0,0,2015,0,N
PA0013071,0,19,24-Dec-2015,42.05,0,0,2015,0,N
PA0013071,0,50,24-Dec-2015,12.80,0,0,2015,0,N
PA0013072,0,18,24-Dec-2015,36.96,0,0,2015,0,N
PA0013072,0,19,24-Dec-2015,39.68,0,0,2015,0,N
PA0013072,0,50,24-Dec-2015,7.19,0,0,2015,0,N
PA0013073,0,18,24-Dec-2015,35.13,0,0,2015,0,N
PA0013073,0,19,24-Dec-2015,38.30,0,0,2015,0,N
PA0013074,0,18,24-Dec-2015,41.29,0,0,2015,0,N
PA0013074,0,19,24-Dec-2015,44.46,0,0,2015,0,N
PA0013075,0,18,24-Dec-2015,35.47,0,0,2015,0,N
PA0013075,0,19,24-Dec-2015,38.13,0,0,2015,0,N
PA0013076,0,18,24-Dec-2015,38.17,0,0,2015,0,N
PA0013076,0,19,24-Dec-2015,40.84,0,0,2015,0,N
PA0013077,0,18,24-Dec-2015,32.31,0,0,2015,0,N
PA0013077,0,19,24-Dec-2015,35.06,0,0,2015,0,N
PA0013078,0,18,24-Dec-2015,34.69,0,0,2015,0,N
PA0013078,0,19,24-Dec-2015,37.44,0,0,2015,0,N
PA0013079,0,18,24-Dec-2015,36.98,0,0,2015,0,N
PA0013079,0,19,24-Dec-2015,40.16,0,0,2015,0,N
PA0013080,0,18,24-Dec-2015,40.78,0,0,2015,0,N
PA0013080,0,19,24-Dec-2015,43.96,0,0,2015,0,N
PA0013081,0,18,24-Dec-2015,35.26,0,0,2015,0,N
PA0013081,0,19,24-Dec-2015,38.41,0,0,2015,0,N
PA0013082,0,18,24-Dec-2015,40.16,0,0,2015,0,N
PA0013082,0,19,24-Dec-2015,43.31,0,0,2015,0,N
