Code,TS Type,PT Code,Date,Value,Fwd Period,Diff Base Roll,Year,Cont Fwd,Record Status
PA5000743,0,3,08-Oct-2015,0.04,10,0,2015,0,C
PA5000743,0,3,15-Oct-2015,0.04,10,0,2015,0,C
PA5000743,0,3,22-Oct-2015,-0.30,11,0,2015,0,C
PA5000743,0,3,29-Oct-2015,-0.30,11,0,2015,0,C
PA5000743,0,3,05-Nov-2015,-0.30,11,0,2015,0,C
PA5000743,0,3,12-Nov-2015,-0.30,11,0,2015,0,C
PA5000743,0,3,19-Nov-2015,-0.70,12,0,2015,0,C
PA5000334,8,1,26-Nov-2015,241.50,0,0,2015,0,C
PA5000334,8,2,26-Nov-2015,242.50,0,0,2015,0,C
PA5000334,8,8,26-Nov-2015,242.00,0,0,2015,0,C
PA5000335,8,1,26-Nov-2015,205.25,0,0,2015,0,C
PA5000335,8,2,26-Nov-2015,206.25,0,0,2015,0,C
PA5000335,8,8,26-Nov-2015,205.75,0,0,2015,0,C
PA5000336,8,1,26-Nov-2015,225.50,0,0,2015,0,C
PA5000336,8,2,26-Nov-2015,226.50,0,0,2015,0,C
PA5000336,8,8,26-Nov-2015,226.00,0,0,2015,0,C
PA5000337,8,1,26-Nov-2015,199.50,0,0,2015,0,C
PA5000337,8,2,26-Nov-2015,200.50,0,0,2015,0,C
PA5000337,8,8,26-Nov-2015,200.00,0,0,2015,0,C
PA5000338,8,1,26-Nov-2015,219.75,0,0,2015,0,C
PA5000338,8,2,26-Nov-2015,220.75,0,0,2015,0,C
PA5000338,8,3,26-Nov-2015,-1.75,0,0,2015,0,C
PA5000338,8,6,26-Nov-2015,-2.25,0,0,2015,0,C
PA5000338,8,7,26-Nov-2015,-1.25,0,0,2015,0,C
PA5000338,8,8,26-Nov-2015,220.25,0,0,2015,0,C
PA5000347,8,1,26-Nov-2015,53.65,0,0,2015,0,C
PA5000347,8,2,26-Nov-2015,53.85,0,0,2015,0,C
PA5000357,8,1,26-Nov-2015,55.65,0,0,2015,0,C
PA5000357,8,2,26-Nov-2015,55.85,0,0,2015,0,C
PA5000357,8,8,26-Nov-2015,55.75,0,0,2015,0,C
PA5000358,8,1,26-Nov-2015,59.00,0,0,2015,0,C
PA5000358,8,2,26-Nov-2015,59.20,0,0,2015,0,C
PA5000358,8,8,26-Nov-2015,59.10,0,0,2015,0,C
PA5000366,8,1,26-Nov-2015,56.15,0,0,2015,0,C
PA5000366,8,2,26-Nov-2015,56.35,0,0,2015,0,C
PA5000370,8,1,26-Nov-2015,57.30,0,0,2015,0,C
PA5000370,8,2,26-Nov-2015,57.50,0,0,2015,0,C
PA5000370,8,8,26-Nov-2015,57.40,0,0,2015,0,C
PA5000372,8,1,26-Nov-2015,58.90,0,0,2015,0,C
PA5000372,8,2,26-Nov-2015,59.10,0,0,2015,0,C
PA5000372,8,8,26-Nov-2015,59.00,0,0,2015,0,C
PA5000376,8,1,26-Nov-2015,58.35,0,0,2015,0,C
PA5000376,8,2,26-Nov-2015,58.55,0,0,2015,0,C
PA5000376,8,8,26-Nov-2015,58.45,0,0,2015,0,C
PA5000377,8,1,26-Nov-2015,54.45,0,0,2015,0,C
PA5000377,8,2,26-Nov-2015,54.65,0,0,2015,0,C
PA5000377,8,8,26-Nov-2015,54.55,0,0,2015,0,C
PA5000379,8,1,26-Nov-2015,56.45,0,0,2015,0,C
PA5000379,8,2,26-Nov-2015,56.65,0,0,2015,0,C
PA5000379,8,8,26-Nov-2015,56.55,0,0,2015,0,C
PA5000391,8,1,26-Nov-2015,455.50,0,0,2015,0,C
PA5000391,8,2,26-Nov-2015,459.00,0,0,2015,0,C
PA5000391,8,8,26-Nov-2015,457.25,0,0,2015,0,C
PA5000392,8,1,26-Nov-2015,430.75,0,0,2015,0,C
PA5000392,8,2,26-Nov-2015,434.25,0,0,2015,0,C
PA5000392,8,3,26-Nov-2015,14.00,0,0,2015,0,C
PA5000392,8,6,26-Nov-2015,13.00,0,0,2015,0,C
PA5000392,8,7,26-Nov-2015,15.00,0,0,2015,0,C
PA5000392,8,8,26-Nov-2015,432.50,0,0,2015,0,C
PA5000393,8,1,26-Nov-2015,49.40,0,0,2015,0,C
PA5000393,8,2,26-Nov-2015,49.55,0,0,2015,0,C
PA5000393,8,8,26-Nov-2015,49.48,0,0,2015,0,C
PA5000414,8,1,26-Nov-2015,227.50,12,0,2015,0,C
PA5000414,8,2,26-Nov-2015,228.50,12,0,2015,0,C
PA5000416,8,1,26-Nov-2015,56.00,12,0,2015,0,C
PA5000416,8,2,26-Nov-2015,56.20,12,0,2015,0,C
PA5000418,8,1,26-Nov-2015,56.45,12,0,2015,0,C
PA5000418,8,2,26-Nov-2015,56.65,12,0,2015,0,C
PA5000419,8,1,26-Nov-2015,48.65,12,0,2015,0,C
PA5000419,8,2,26-Nov-2015,48.85,12,0,2015,0,C
PA5000615,8,1,26-Nov-2015,230.25,1,0,2016,0,C
PA5000615,8,2,26-Nov-2015,231.25,1,0,2016,0,C
PA5000616,8,1,26-Nov-2015,234.25,2,0,2016,0,C
PA5000616,8,2,26-Nov-2015,235.25,2,0,2016,0,C
PA5000619,8,1,26-Nov-2015,55.85,1,0,2016,0,C
PA5000619,8,2,26-Nov-2015,56.05,1,0,2016,0,C
PA5000620,8,1,26-Nov-2015,56.25,2,0,2016,0,C
PA5000620,8,2,26-Nov-2015,56.45,2,0,2016,0,C
PA5000623,8,1,26-Nov-2015,56.70,1,0,2016,0,C
PA5000623,8,2,26-Nov-2015,56.90,1,0,2016,0,C
PA5000624,8,1,26-Nov-2015,57.30,2,0,2016,0,C
PA5000624,8,2,26-Nov-2015,57.50,2,0,2016,0,C
PA5000625,8,1,26-Nov-2015,48.05,1,0,2016,0,C
PA5000625,8,2,26-Nov-2015,48.25,1,0,2016,0,C
PA5000626,8,1,26-Nov-2015,47.80,2,0,2016,0,C
PA5000626,8,2,26-Nov-2015,48.00,2,0,2016,0,C
PA5000743,0,3,26-Nov-2015,-0.70,12,0,2015,0,C
PA5001325,8,8,26-Nov-2015,36.840,0,0,2015,0,C
PA5000545,9,5,27-Nov-2015,45.40,0,0,2015,0,C
PA5000114,9,5,30-Nov-2015,46.27,0,0,2015,0,C
PA0002006,0,29,25-Nov-2015,2177.00,0,0,2015,0,N
PA0003467,0,29,25-Nov-2015,717.00,0,0,2015,0,N
PA0003469,0,29,25-Nov-2015,1648.00,0,0,2015,0,N
PA0003473,0,29,25-Nov-2015,999.00,0,0,2015,0,N
PA0003475,0,29,25-Nov-2015,361.00,0,0,2015,0,N
PA0004007,0,29,25-Nov-2015,366.00,0,0,2015,0,N
PA0002007,0,29,26-Nov-2015,2670.60,0,0,2015,0,N
PA0003463,0,1,26-Nov-2015,412.25,0,0,2015,0,N
PA0003463,0,2,26-Nov-2015,412.75,0,0,2015,0,N
PA0003464,0,1,26-Nov-2015,474.00,0,0,2015,0,N
PA0003464,0,2,26-Nov-2015,474.50,0,0,2015,0,N
PA0003465,0,1,26-Nov-2015,449.44,0,0,2015,0,N
PA0003465,0,2,26-Nov-2015,450.41,0,0,2015,0,N
PA0003466,0,1,26-Nov-2015,489.24,0,0,2015,0,N
PA0003466,0,2,26-Nov-2015,490.21,0,0,2015,0,N
PA0003468,0,29,26-Nov-2015,2913.31,0,0,2015,0,N
PA0003472,0,29,26-Nov-2015,1214.28,0,0,2015,0,N
PA0003474,0,29,26-Nov-2015,556.08,0,0,2015,0,N
PA0004006,0,29,26-Nov-2015,725.21,0,0,2015,0,N
PA5000253,8,1,26-Nov-2015,42.68,0,0,2015,0,N
PA5000253,8,2,26-Nov-2015,42.78,0,0,2015,0,N
PA5000253,8,3,26-Nov-2015,2.00,0,0,2015,0,N
PA5000255,8,1,26-Nov-2015,45.68,0,0,2015,0,N
PA5000255,8,2,26-Nov-2015,45.78,0,0,2015,0,N
PA5000255,8,3,26-Nov-2015,3.00,0,0,2015,0,N
PA5000256,6,1,26-Nov-2015,45.20,0,0,2015,0,N
PA5000256,6,2,26-Nov-2015,45.26,0,0,2015,0,N
PA5000256,6,3,26-Nov-2015,1.40,0,0,2015,0,N
PA5000257,6,8,26-Nov-2015,46.58,0,0,2015,0,N
PA5000257,8,3,26-Nov-2015,2.75,0,0,2015,0,N
PA5000259,8,1,26-Nov-2015,48.68,0,0,2015,0,N
PA5000259,8,2,26-Nov-2015,48.78,0,0,2015,0,N
PA5000259,8,3,26-Nov-2015,3.00,0,0,2015,0,N
PA5000260,6,1,26-Nov-2015,43.80,0,0,2015,0,N
PA5000260,6,2,26-Nov-2015,43.86,0,0,2015,0,N
PA5000260,6,3,26-Nov-2015,0.00,0,0,2015,0,N
PA5000260,6,8,26-Nov-2015,43.83,0,0,2015,0,N
PA5000262,6,1,26-Nov-2015,43.00,0,0,2015,0,N
PA5000262,6,2,26-Nov-2015,43.06,0,0,2015,0,N
PA5000262,6,3,26-Nov-2015,-0.80,0,0,2015,0,N
PA5000262,6,8,26-Nov-2015,43.03,0,0,2015,0,N
PA5000264,6,1,26-Nov-2015,42.40,0,0,2015,0,N
PA5000264,6,2,26-Nov-2015,42.46,0,0,2015,0,N
PA5000264,6,3,26-Nov-2015,-1.40,0,0,2015,0,N
PA5000264,6,8,26-Nov-2015,42.43,0,0,2015,0,N
PA5000267,8,1,26-Nov-2015,43.68,0,0,2015,0,N
PA5000267,8,2,26-Nov-2015,43.78,0,0,2015,0,N
PA5000267,8,3,26-Nov-2015,2.00,0,0,2015,0,N
PA5000267,8,8,26-Nov-2015,43.73,0,0,2015,0,N
PA5000268,6,1,26-Nov-2015,44.78,0,0,2015,0,N
PA5000268,6,2,26-Nov-2015,44.88,0,0,2015,0,N
PA5000268,6,8,26-Nov-2015,44.83,0,0,2015,0,N
PA5000268,8,3,26-Nov-2015,1.00,0,0,2015,0,N
PA5000270,6,1,26-Nov-2015,43.15,0,0,2015,0,N
PA5000270,6,2,26-Nov-2015,43.21,0,0,2015,0,N
PA5000270,6,3,26-Nov-2015,-0.65,0,0,2015,0,N
PA5000270,6,8,26-Nov-2015,43.18,0,0,2015,0,N
PA5000276,8,1,26-Nov-2015,42.78,0,0,2015,0,N
PA5000276,8,2,26-Nov-2015,42.88,0,0,2015,0,N
PA5000276,8,3,26-Nov-2015,3.10,0,0,2015,0,N
PA5000276,8,8,26-Nov-2015,42.83,0,0,2015,0,N
PA5000277,6,1,26-Nov-2015,43.95,0,0,2015,0,N
PA5000277,6,2,26-Nov-2015,44.01,0,0,2015,0,N
PA5000277,6,3,26-Nov-2015,0.15,0,0,2015,0,N
PA5000278,6,1,26-Nov-2015,42.10,0,0,2015,0,N
PA5000278,6,2,26-Nov-2015,42.16,0,0,2015,0,N
PA5000278,6,3,26-Nov-2015,-1.70,0,0,2015,0,N
PA5000278,6,8,26-Nov-2015,42.13,0,0,2015,0,N
PA5000280,6,1,26-Nov-2015,43.80,0,0,2015,0,N
PA5000280,6,2,26-Nov-2015,43.86,0,0,2015,0,N
PA5000280,6,3,26-Nov-2015,0.00,0,0,2015,0,N
PA5000280,6,8,26-Nov-2015,43.83,0,0,2015,0,N
PA5000282,6,1,26-Nov-2015,41.85,0,0,2015,0,N
PA5000282,6,2,26-Nov-2015,41.91,0,0,2015,0,N
PA5000282,6,3,26-Nov-2015,-1.95,0,0,2015,0,N
PA5000282,6,8,26-Nov-2015,41.88,0,0,2015,0,N
PA5000283,6,1,26-Nov-2015,44.05,0,0,2015,0,N
PA5000283,6,2,26-Nov-2015,44.11,0,0,2015,0,N
PA5000283,6,3,26-Nov-2015,0.25,0,0,2015,0,N
PA5000283,6,8,26-Nov-2015,44.08,0,0,2015,0,N
PA5000284,6,1,26-Nov-2015,43.20,0,0,2015,0,N
PA5000284,6,2,26-Nov-2015,43.26,0,0,2015,0,N
PA5000284,6,3,26-Nov-2015,-0.60,0,0,2015,0,N
PA5000284,6,8,26-Nov-2015,43.23,0,0,2015,0,N
PA5000286,6,1,26-Nov-2015,41.28,0,0,2015,0,N
PA5000286,6,2,26-Nov-2015,41.34,0,0,2015,0,N
PA5000286,6,3,26-Nov-2015,-2.52,0,0,2015,0,N
PA5000286,6,8,26-Nov-2015,41.31,0,0,2015,0,N
PA5000287,6,1,26-Nov-2015,42.53,0,0,2015,0,N
PA5000287,6,2,26-Nov-2015,42.59,0,0,2015,0,N
PA5000287,6,3,26-Nov-2015,-1.27,0,0,2015,0,N
PA5000287,6,8,26-Nov-2015,42.56,0,0,2015,0,N
PA5000288,6,1,26-Nov-2015,40.20,0,0,2015,0,N
PA5000288,6,2,26-Nov-2015,40.26,0,0,2015,0,N
PA5000288,6,3,26-Nov-2015,-3.60,0,0,2015,0,N
PA5000289,6,1,26-Nov-2015,45.28,0,0,2015,0,N
PA5000289,6,2,26-Nov-2015,45.38,0,0,2015,0,N
PA5000289,6,8,26-Nov-2015,45.33,0,0,2015,0,N
PA5000289,8,3,26-Nov-2015,1.50,0,0,2015,0,N
PA5000292,8,1,26-Nov-2015,43.68,0,0,2015,0,N
PA5000292,8,2,26-Nov-2015,43.78,0,0,2015,0,N
PA5000292,8,3,26-Nov-2015,2.00,0,0,2015,0,N
PA5000292,8,8,26-Nov-2015,43.73,0,0,2015,0,N
PA5000293,8,1,26-Nov-2015,44.69,1,0,2016,0,N
PA5000293,8,2,26-Nov-2015,44.79,1,0,2016,0,N
PA5000293,8,3,26-Nov-2015,0.50,1,0,2016,0,N
PA5000293,8,8,26-Nov-2015,44.74,1,0,2016,0,N
PA5000294,6,4,26-Nov-2015,44.28,0,0,2015,0,N
PA5000295,6,8,26-Nov-2015,45.93,0,0,2015,0,N
PA5000295,8,3,26-Nov-2015,2.10,0,0,2015,0,N
PA5000298,6,1,26-Nov-2015,44.55,0,0,2015,0,N
PA5000298,6,2,26-Nov-2015,44.61,0,0,2015,0,N
PA5000298,6,3,26-Nov-2015,0.75,0,0,2015,0,N
PA5000298,6,8,26-Nov-2015,44.58,0,0,2015,0,N
PA5000300,8,1,26-Nov-2015,43.14,1,0,2016,0,N
PA5000300,8,2,26-Nov-2015,43.24,1,0,2016,0,N
PA5000300,8,3,26-Nov-2015,0.00,1,0,2016,0,N
PA5000300,8,8,26-Nov-2015,43.19,1,0,2016,0,N
PA5000301,8,1,26-Nov-2015,40.49,1,0,2016,0,N
PA5000301,8,2,26-Nov-2015,40.59,1,0,2016,0,N
PA5000301,8,3,26-Nov-2015,-0.40,1,0,2016,0,N
PA5000301,8,8,26-Nov-2015,40.54,1,0,2016,0,N
PA5000302,6,1,26-Nov-2015,44.00,0,0,2015,0,N
PA5000302,6,2,26-Nov-2015,44.06,0,0,2015,0,N
PA5000302,6,3,26-Nov-2015,0.20,0,0,2015,0,N
PA5000302,6,8,26-Nov-2015,44.03,0,0,2015,0,N
PA5000304,6,1,26-Nov-2015,44.00,0,0,2015,0,N
PA5000304,6,2,26-Nov-2015,44.06,0,0,2015,0,N
PA5000304,6,3,26-Nov-2015,0.20,0,0,2015,0,N
PA5000304,6,8,26-Nov-2015,44.03,0,0,2015,0,N
PA5000305,6,1,26-Nov-2015,42.60,0,0,2015,0,N
PA5000305,6,2,26-Nov-2015,42.66,0,0,2015,0,N
PA5000305,6,3,26-Nov-2015,-1.20,0,0,2015,0,N
PA5000305,6,8,26-Nov-2015,42.63,0,0,2015,0,N
PA5000306,6,1,26-Nov-2015,44.05,0,0,2015,0,N
PA5000306,6,2,26-Nov-2015,44.11,0,0,2015,0,N
PA5000306,6,3,26-Nov-2015,0.25,0,0,2015,0,N
PA5000306,6,8,26-Nov-2015,44.08,0,0,2015,0,N
PA5000307,6,1,26-Nov-2015,40.60,0,0,2015,0,N
PA5000307,6,2,26-Nov-2015,40.66,0,0,2015,0,N
PA5000307,6,3,26-Nov-2015,-3.20,0,0,2015,0,N
PA5000307,6,8,26-Nov-2015,40.63,0,0,2015,0,N
PA5000310,6,1,26-Nov-2015,44.05,0,0,2015,0,N
PA5000310,6,2,26-Nov-2015,44.11,0,0,2015,0,N
PA5000310,6,3,26-Nov-2015,0.25,0,0,2015,0,N
PA5000310,6,8,26-Nov-2015,44.08,0,0,2015,0,N
PA5000311,6,1,26-Nov-2015,42.30,0,0,2015,0,N
PA5000311,6,2,26-Nov-2015,42.36,0,0,2015,0,N
PA5000311,6,3,26-Nov-2015,-1.50,0,0,2015,0,N
PA5000311,6,8,26-Nov-2015,42.33,0,0,2015,0,N
PA5000312,6,1,26-Nov-2015,41.30,0,0,2015,0,N
PA5000312,6,2,26-Nov-2015,41.36,0,0,2015,0,N
PA5000312,6,3,26-Nov-2015,-2.50,0,0,2015,0,N
PA5000312,6,8,26-Nov-2015,41.33,0,0,2015,0,N
PA5000314,8,1,26-Nov-2015,44.18,0,0,2015,0,N
PA5000314,8,2,26-Nov-2015,44.28,0,0,2015,0,N
PA5000314,8,3,26-Nov-2015,2.50,0,0,2015,0,N
PA5000314,8,8,26-Nov-2015,44.23,0,0,2015,0,N
PA5000316,6,1,26-Nov-2015,352.00,0,0,2015,0,N
PA5000316,6,2,26-Nov-2015,362.00,0,0,2015,0,N
PA5000316,6,8,26-Nov-2015,357.00,0,0,2015,0,N
PA5000317,8,6,26-Nov-2015,-30.00,12,12,2015,0,N
PA5000317,8,7,26-Nov-2015,-20.00,12,12,2015,0,N
PA5000318,8,6,26-Nov-2015,60.00,1,12,2016,0,N
PA5000318,8,7,26-Nov-2015,65.00,1,12,2016,0,N
PA5000319,6,1,26-Nov-2015,355.00,0,0,2015,0,N
PA5000319,6,2,26-Nov-2015,365.00,0,0,2015,0,N
PA5000319,6,8,26-Nov-2015,360.00,0,0,2015,0,N
PA5000321,6,1,26-Nov-2015,372.00,0,0,2015,0,N
PA5000321,6,2,26-Nov-2015,382.00,0,0,2015,0,N
PA5000321,6,8,26-Nov-2015,377.00,0,0,2015,0,N
PA5000322,8,6,26-Nov-2015,-30.00,12,12,2015,0,N
PA5000322,8,7,26-Nov-2015,-20.00,12,12,2015,0,N
PA5000323,8,6,26-Nov-2015,60.00,1,12,2016,0,N
PA5000323,8,7,26-Nov-2015,65.00,1,12,2016,0,N
PA5000324,6,1,26-Nov-2015,374.00,0,0,2015,0,N
PA5000324,6,2,26-Nov-2015,384.00,0,0,2015,0,N
PA5000324,6,8,26-Nov-2015,379.00,0,0,2015,0,N
PA5000326,6,1,26-Nov-2015,207.50,0,0,2015,0,N
PA5000326,6,2,26-Nov-2015,211.50,0,0,2015,0,N
PA5000326,6,8,26-Nov-2015,209.50,0,0,2015,0,N
PA5000327,6,1,26-Nov-2015,212.75,0,0,2015,0,N
PA5000327,6,2,26-Nov-2015,216.75,0,0,2015,0,N
PA5000327,6,8,26-Nov-2015,214.75,0,0,2015,0,N
PA5000328,6,1,26-Nov-2015,195.25,0,0,2015,0,N
PA5000328,6,2,26-Nov-2015,199.25,0,0,2015,0,N
PA5000328,6,8,26-Nov-2015,197.25,0,0,2015,0,N
PA5000329,6,8,26-Nov-2015,183.25,0,0,2015,0,N
PA5000330,6,1,26-Nov-2015,182.75,0,0,2015,0,N
PA5000330,6,2,26-Nov-2015,186.75,0,0,2015,0,N
PA5000330,6,8,26-Nov-2015,184.75,0,0,2015,0,N
PA5000346,6,6,26-Nov-2015,-6.00,0,0,2015,0,N
PA5000346,6,7,26-Nov-2015,-5.50,0,0,2015,0,N
PA5000348,8,1,26-Nov-2015,53.25,0,0,2015,0,N
PA5000348,8,2,26-Nov-2015,53.45,0,0,2015,0,N
PA5000348,8,8,26-Nov-2015,53.35,0,0,2015,0,N
PA5000351,6,1,26-Nov-2015,423.50,0,12,2015,0,N
PA5000351,6,2,26-Nov-2015,424.50,0,12,2015,0,N
PA5000351,6,8,26-Nov-2015,424.00,0,12,2015,0,N
PA5000352,6,1,26-Nov-2015,419.50,0,12,2015,0,N
PA5000352,6,2,26-Nov-2015,420.50,0,12,2015,0,N
PA5000352,6,3,26-Nov-2015,-1.50,0,12,2015,0,N
PA5000352,6,6,26-Nov-2015,-2.00,0,12,2015,0,N
PA5000352,6,7,26-Nov-2015,-1.00,0,12,2015,0,N
PA5000352,6,8,26-Nov-2015,420.00,0,12,2015,0,N
PA5000353,6,1,26-Nov-2015,409.00,0,12,2015,0,N
PA5000353,6,2,26-Nov-2015,410.00,0,12,2015,0,N
PA5000353,6,3,26-Nov-2015,-12.00,0,12,2015,0,N
PA5000353,6,6,26-Nov-2015,-12.50,0,12,2015,0,N
PA5000353,6,7,26-Nov-2015,-11.50,0,12,2015,0,N
PA5000353,6,8,26-Nov-2015,409.50,0,12,2015,0,N
PA5000354,6,1,26-Nov-2015,409.00,0,12,2015,0,N
PA5000354,6,2,26-Nov-2015,410.00,0,12,2015,0,N
PA5000354,6,3,26-Nov-2015,-12.00,0,12,2015,0,N
PA5000354,6,6,26-Nov-2015,-12.50,0,12,2015,0,N
PA5000354,6,7,26-Nov-2015,-11.50,0,12,2015,0,N
PA5000354,6,8,26-Nov-2015,409.50,0,12,2015,0,N
PA5000355,6,8,26-Nov-2015,399.50,0,0,2015,0,N
PA5000356,6,1,26-Nov-2015,400.25,0,12,2015,0,N
PA5000356,6,2,26-Nov-2015,400.75,0,12,2015,0,N
PA5000378,6,1,26-Nov-2015,444.00,0,12,2015,0,N
PA5000378,6,2,26-Nov-2015,445.00,0,12,2015,0,N
PA5000378,6,8,26-Nov-2015,444.50,0,12,2015,0,N
PA5000381,6,1,26-Nov-2015,424.25,0,0,2015,0,N
PA5000381,6,2,26-Nov-2015,425.25,0,0,2015,0,N
PA5000381,6,8,26-Nov-2015,424.75,0,0,2015,0,N
PA5000385,6,1,26-Nov-2015,604.25,0,0,2015,0,N
PA5000385,6,2,26-Nov-2015,605.00,0,0,2015,0,N
PA5000388,6,1,26-Nov-2015,425.50,0,0,2015,0,N
PA5000388,6,2,26-Nov-2015,426.50,0,0,2015,0,N
PA5000388,6,8,26-Nov-2015,426.00,0,0,2015,0,N
PA5000389,6,1,26-Nov-2015,415.50,0,0,2015,0,N
PA5000389,6,2,26-Nov-2015,416.50,0,0,2015,0,N
PA5000389,6,8,26-Nov-2015,416.00,0,0,2015,0,N
PA5000390,6,8,26-Nov-2015,406.00,0,0,2015,0,N
PA5000396,6,1,26-Nov-2015,303.75,0,0,2015,0,N
PA5000396,6,2,26-Nov-2015,307.00,0,0,2015,0,N
PA5000396,6,8,26-Nov-2015,305.38,0,0,2015,0,N
PA5000397,6,1,26-Nov-2015,300.25,0,0,2015,0,N
PA5000397,6,2,26-Nov-2015,303.50,0,0,2015,0,N
PA5000397,6,8,26-Nov-2015,301.88,0,0,2015,0,N
PA5000398,6,1,26-Nov-2015,296.25,0,0,2015,0,N
PA5000398,6,2,26-Nov-2015,299.75,0,0,2015,0,N
PA5000398,6,8,26-Nov-2015,298.00,0,0,2015,0,N
PA5000401,6,1,26-Nov-2015,42.10,0,0,2015,0,N
PA5000401,6,2,26-Nov-2015,42.16,0,0,2015,0,N
PA5000401,6,3,26-Nov-2015,-1.70,0,0,2015,0,N
PA5000401,6,8,26-Nov-2015,42.13,0,0,2015,0,N
PA5000402,6,1,26-Nov-2015,43.00,0,0,2015,0,N
PA5000402,6,2,26-Nov-2015,43.06,0,0,2015,0,N
PA5000402,6,3,26-Nov-2015,-0.80,0,0,2015,0,N
PA5000402,6,8,26-Nov-2015,43.03,0,0,2015,0,N
PA5000403,6,1,26-Nov-2015,43.80,0,1,2015,0,N
PA5000403,6,2,26-Nov-2015,43.86,0,1,2015,0,N
PA5000403,6,3,26-Nov-2015,-1.09,0,1,2015,0,N
PA5000403,6,8,26-Nov-2015,43.83,0,1,2015,0,N
PA5000408,6,1,26-Nov-2015,44.08,12,0,2015,0,N
PA5000408,6,2,26-Nov-2015,44.16,12,0,2015,0,N
PA5000408,6,8,26-Nov-2015,44.12,12,0,2015,0,N
PA5000409,9,5,26-Nov-2015,45.58,1,0,2016,0,N
PA5000410,6,1,26-Nov-2015,40.20,1,0,2016,0,N
PA5000410,6,2,26-Nov-2015,40.28,1,0,2016,0,N
PA5000410,6,8,26-Nov-2015,40.24,1,0,2016,0,N
PA5000411,8,1,26-Nov-2015,40.82,1,1,2016,0,N
PA5000411,8,2,26-Nov-2015,40.92,1,1,2016,0,N
PA5000411,8,3,26-Nov-2015,-1.91,1,1,2016,0,N
PA5000411,8,8,26-Nov-2015,40.87,1,1,2016,0,N
PA5000415,6,1,26-Nov-2015,196.50,12,0,2015,0,N
PA5000415,6,2,26-Nov-2015,197.50,12,0,2015,0,N
PA5000417,6,1,26-Nov-2015,461.00,12,0,2015,0,N
PA5000417,6,2,26-Nov-2015,463.00,12,0,2015,0,N
PA5000421,6,1,26-Nov-2015,193.75,12,0,2015,0,N
PA5000421,6,2,26-Nov-2015,194.75,12,0,2015,0,N
PA5000422,6,5,26-Nov-2015,421.50,12,0,2015,0,N
PA5000426,9,5,26-Nov-2015,45.46,1,0,2016,0,N
PA5000431,6,1,26-Nov-2015,40.20,0,0,2015,0,N
PA5000431,6,2,26-Nov-2015,40.26,0,0,2015,0,N
PA5000431,6,3,26-Nov-2015,-3.60,0,0,2015,0,N
PA5000602,6,1,26-Nov-2015,44.89,1,0,2016,0,N
PA5000602,6,2,26-Nov-2015,44.95,1,0,2016,0,N
PA5000602,6,8,26-Nov-2015,44.92,1,0,2016,0,N
PA5000603,6,1,26-Nov-2015,45.70,2,0,2016,0,N
PA5000603,6,2,26-Nov-2015,45.78,2,0,2016,0,N
PA5000603,6,8,26-Nov-2015,45.74,2,0,2016,0,N
PA5000604,6,1,26-Nov-2015,46.31,3,0,2016,0,N
PA5000604,6,2,26-Nov-2015,46.39,3,0,2016,0,N
PA5000604,6,8,26-Nov-2015,46.35,3,0,2016,0,N
PA5000605,9,5,26-Nov-2015,46.31,2,0,2016,0,N
PA5000606,6,1,26-Nov-2015,41.43,2,0,2016,0,N
PA5000606,6,2,26-Nov-2015,41.53,2,0,2016,0,N
PA5000606,6,8,26-Nov-2015,41.48,2,0,2016,0,N
PA5000607,6,1,26-Nov-2015,42.28,3,0,2016,0,N
PA5000607,6,2,26-Nov-2015,42.38,3,0,2016,0,N
PA5000607,6,8,26-Nov-2015,42.33,3,0,2016,0,N
PA5000608,6,1,26-Nov-2015,43.11,4,0,2016,0,N
PA5000608,6,2,26-Nov-2015,43.21,4,0,2016,0,N
PA5000608,6,8,26-Nov-2015,43.16,4,0,2016,0,N
PA5000617,6,1,26-Nov-2015,202.50,1,0,2016,0,N
PA5000617,6,2,26-Nov-2015,203.50,1,0,2016,0,N
PA5000618,6,1,26-Nov-2015,207.25,2,0,2016,0,N
PA5000618,6,2,26-Nov-2015,208.25,2,0,2016,0,N
PA5000621,6,1,26-Nov-2015,460.00,1,0,2016,0,N
PA5000621,6,2,26-Nov-2015,462.00,1,0,2016,0,N
PA5000622,6,1,26-Nov-2015,466.50,2,0,2016,0,N
PA5000622,6,2,26-Nov-2015,468.50,2,0,2016,0,N
PA5000629,6,1,26-Nov-2015,199.00,1,0,2016,0,N
PA5000629,6,2,26-Nov-2015,200.00,1,0,2016,0,N
PA5000630,6,1,26-Nov-2015,203.75,2,0,2016,0,N
PA5000630,6,2,26-Nov-2015,204.75,2,0,2016,0,N
PA5000631,6,5,26-Nov-2015,427.00,1,0,2016,0,N
PA5000637,9,5,26-Nov-2015,46.19,2,0,2016,0,N
PA5000660,0,3,26-Nov-2015,-1.10,11,0,2015,0,N
PA5000661,0,3,26-Nov-2015,-4.45,12,0,2015,0,N
PA5000662,0,3,26-Nov-2015,-0.10,12,0,2015,0,N
PA5000663,0,3,26-Nov-2015,-8.50,12,0,2015,0,N
PA5000664,0,3,26-Nov-2015,-1.45,12,0,2015,0,N
PA5000665,0,3,26-Nov-2015,-1.30,12,0,2015,0,N
PA5000666,0,3,26-Nov-2015,1.80,12,0,2015,0,N
PA5000667,0,3,26-Nov-2015,-4.75,12,0,2015,0,N
PA5000668,0,3,26-Nov-2015,0.45,12,0,2015,0,N
PA5000669,0,3,26-Nov-2015,-6.40,12,0,2015,0,N
PA5000670,0,3,26-Nov-2015,-2.90,12,0,2015,0,N
PA5000671,0,3,26-Nov-2015,-1.05,12,0,2015,0,N
PA5000672,0,3,26-Nov-2015,0.30,12,0,2015,0,N
PA5000673,0,8,26-Nov-2015,43.72,10,0,2015,0,N
PA5000675,0,8,26-Nov-2015,46.49,10,0,2015,0,N
PA5000676,0,3,26-Nov-2015,-3.35,12,0,2015,0,N
PA5000677,0,3,26-Nov-2015,-5.25,12,0,2015,0,N
PA5000678,0,3,26-Nov-2015,-0.55,12,0,2015,0,N
PA5000680,0,8,26-Nov-2015,47.83,10,0,2015,0,N
PA5000681,0,3,26-Nov-2015,-2.65,12,0,2015,0,N
PA5000682,0,3,26-Nov-2015,3.55,12,0,2015,0,N
PA5000684,0,8,26-Nov-2015,48.61,10,0,2015,0,N
PA5000685,0,3,26-Nov-2015,0.00,12,0,2015,0,N
PA5000686,0,3,26-Nov-2015,-2.70,11,0,2015,0,N
PA5000687,0,3,26-Nov-2015,-0.71,12,0,2015,0,N
PA5000688,0,3,26-Nov-2015,-0.25,11,0,2015,0,N
PA5000689,0,3,26-Nov-2015,1.20,11,0,2015,0,N
PA5000690,0,8,26-Nov-2015,42.77,10,0,2015,0,N
PA5000691,0,3,26-Nov-2015,0.41,10,0,2015,0,N
PA5000691,0,8,26-Nov-2015,46.25,10,0,2015,0,N
PA5000692,0,8,26-Nov-2015,40.55,10,0,2015,0,N
PA5000693,0,3,26-Nov-2015,-1.00,11,0,2015,0,N
PA5000694,0,3,26-Nov-2015,-0.20,12,0,2015,0,N
PA5000695,0,3,26-Nov-2015,0.20,11,0,2015,0,N
PA5000696,0,3,26-Nov-2015,0.27,12,0,2015,0,N
PA5000697,0,3,26-Nov-2015,-2.97,12,0,2015,0,N
PA5000698,0,3,26-Nov-2015,-1.15,12,0,2015,0,N
PA5000700,0,3,26-Nov-2015,0.30,12,0,2015,0,N
PA5000701,0,3,26-Nov-2015,-3.50,12,0,2015,0,N
PA5000702,0,8,26-Nov-2015,51.41,10,0,2015,0,N
PA5000704,0,3,26-Nov-2015,0.00,6,0,2015,0,N
PA5000705,0,3,26-Nov-2015,-1.84,10,0,2015,0,N
PA5000705,0,8,26-Nov-2015,44.00,10,0,2015,0,N
PA5000706,0,3,26-Nov-2015,1.22,6,0,2015,0,N
PA5000708,0,8,26-Nov-2015,42.92,10,0,2015,0,N
PA5000709,0,8,26-Nov-2015,51.41,10,0,2015,0,N
PA5000710,0,8,26-Nov-2015,47.30,10,0,2015,0,N
PA5000713,0,8,26-Nov-2015,46.03,12,0,2015,0,N
PA5000714,0,3,26-Nov-2015,-0.55,12,0,2015,0,N
PA5000715,0,3,26-Nov-2015,0.22,12,0,2015,0,N
PA5000719,0,3,26-Nov-2015,1.00,11,0,2015,0,N
PA5000720,0,3,26-Nov-2015,-2.60,11,0,2015,0,N
PA5000721,0,8,26-Nov-2015,48.94,10,0,2015,0,N
PA5000722,0,3,26-Nov-2015,-2.00,11,0,2015,0,N
PA5000723,0,3,26-Nov-2015,-9.75,10,0,2011,0,N
PA5000726,0,3,26-Nov-2015,2.85,10,0,2015,0,N
PA5000726,0,8,26-Nov-2015,48.91,10,0,2015,0,N
PA5000728,0,8,26-Nov-2015,43.95,10,0,2015,0,N
PA5000729,0,8,26-Nov-2015,42.92,10,0,2015,0,N
PA5000731,0,3,26-Nov-2015,-0.20,11,0,2015,0,N
PA5000732,0,3,26-Nov-2015,-5.05,12,0,2015,0,N
PA5000733,0,8,26-Nov-2015,48.08,10,0,2015,0,N
PA5000734,0,3,26-Nov-2015,0.05,12,0,2015,0,N
PA5000735,0,3,26-Nov-2015,-1.30,12,0,2015,0,N
PA5000736,0,3,26-Nov-2015,-3.65,12,0,2015,0,N
PA5000737,0,3,26-Nov-2015,-4.90,12,0,2015,0,N
PA5000738,0,3,26-Nov-2015,-6.50,12,0,2015,0,N
PA5000739,0,3,26-Nov-2015,2.10,12,0,2015,0,N
PA5000740,0,3,26-Nov-2015,0.80,12,0,2015,0,N
PA5000741,0,3,26-Nov-2015,-0.90,11,0,2015,0,N
PA5000745,0,3,26-Nov-2015,0.94,12,0,2015,0,N
PA5000746,0,3,26-Nov-2015,1.18,12,0,2015,0,N
PA5000747,0,8,26-Nov-2015,45.02,10,0,2015,0,N
PA5000748,0,3,26-Nov-2015,-2.80,12,0,2015,0,N
PA5000749,0,3,26-Nov-2015,-3.55,12,0,2015,0,N
PA5000750,0,3,26-Nov-2015,-4.80,12,0,2015,0,N
PA5000751,0,3,26-Nov-2015,-4.60,12,0,2015,0,N
PA5000752,0,3,26-Nov-2015,-5.00,12,0,2015,0,N
PA5000753,0,3,26-Nov-2015,-6.25,12,0,2015,0,N
PA5000754,0,3,26-Nov-2015,-6.05,12,0,2015,0,N
PA5000755,0,3,26-Nov-2015,-4.85,12,0,2015,0,N
PA5000756,0,3,26-Nov-2015,-6.50,12,0,2015,0,N
PA5000757,0,3,26-Nov-2015,-6.30,12,0,2015,0,N
PA5000765,0,20,26-Nov-2015,135.00,0,0,2015,0,N
PA5000766,0,20,26-Nov-2015,140.00,0,0,2015,0,N
PA5000767,0,20,26-Nov-2015,145.00,0,0,2015,0,N
PA5000768,0,20,26-Nov-2015,117.50,0,0,2015,0,N
PA5000769,0,20,26-Nov-2015,82.50,0,0,2015,0,N
PA5000770,0,20,26-Nov-2015,110.00,0,0,2015,0,N
PA5000771,0,20,26-Nov-2015,117.50,0,0,2015,0,N
PA5000772,0,20,26-Nov-2015,160.00,0,0,2015,0,N
PA5000773,0,20,26-Nov-2015,160.00,0,0,2015,0,N
PA5000776,0,20,26-Nov-2015,61.00,0,0,2015,0,N
PA5000777,0,20,26-Nov-2015,37.00,0,0,2015,0,N
PA5000778,0,20,26-Nov-2015,37.00,0,0,2015,0,N
PA5000779,0,20,26-Nov-2015,80.00,0,0,2015,0,N
PA5000780,0,20,26-Nov-2015,112.50,0,0,2015,0,N
PA5000781,0,20,26-Nov-2015,105.00,0,0,2015,0,N
PA5000782,0,20,26-Nov-2015,95.00,0,0,2015,0,N
PA5000783,0,20,26-Nov-2015,82.50,0,0,2015,0,N
PA5000784,0,20,26-Nov-2015,85.00,0,0,2015,0,N
PA5000785,0,20,26-Nov-2015,115.00,0,0,2015,0,N
PA5000786,0,20,26-Nov-2015,100.00,0,0,2015,0,N
PA5000788,0,20,26-Nov-2015,122.50,0,0,2015,0,N
PA5000789,0,20,26-Nov-2015,115.00,0,0,2015,0,N
PA5000790,0,20,26-Nov-2015,95.00,0,0,2015,0,N
PA5000792,0,20,26-Nov-2015,7.44,0,0,2015,0,N
PA5000793,0,20,26-Nov-2015,12.12,0,0,2015,0,N
PA5000794,0,20,26-Nov-2015,13.80,0,0,2015,0,N
PA5000795,0,20,26-Nov-2015,18.35,0,0,2015,0,N
PA5000796,0,20,26-Nov-2015,27.08,0,0,2015,0,N
PA5000797,0,20,26-Nov-2015,13.45,0,0,2015,0,N
PA5000798,0,20,26-Nov-2015,15.94,0,0,2015,0,N
PA5000799,0,20,26-Nov-2015,6.28,0,0,2015,0,N
PA5000800,0,20,26-Nov-2015,9.89,0,0,2015,0,N
PA5000801,0,20,26-Nov-2015,10.53,0,0,2015,0,N
PA5000802,0,20,26-Nov-2015,25.38,0,0,2015,0,N
PA5000803,0,20,26-Nov-2015,42.82,0,0,2015,0,N
PA5000804,0,20,26-Nov-2015,21.11,0,0,2015,0,N
PA5000805,0,20,26-Nov-2015,21.11,0,0,2015,0,N
PA5000806,0,20,26-Nov-2015,7.23,0,0,2015,0,N
PA5000807,0,20,26-Nov-2015,16.11,0,0,2015,0,N
PA5000808,0,20,26-Nov-2015,9.81,0,0,2015,0,N
PA5000809,0,20,26-Nov-2015,23.92,0,0,2015,0,N
PA5000810,0,20,26-Nov-2015,18.73,0,0,2015,0,N
PA5000811,0,20,26-Nov-2015,8.18,0,0,2015,0,N
PA5000812,0,20,26-Nov-2015,24.86,0,0,2015,0,N
PA5000813,0,20,26-Nov-2015,10.13,0,0,2015,0,N
PA5000814,0,20,26-Nov-2015,15.49,0,0,2015,0,N
PA5000815,0,20,26-Nov-2015,10.76,0,0,2015,0,N
PA5000816,0,20,26-Nov-2015,13.87,0,0,2015,0,N
PA5000817,0,20,26-Nov-2015,19.15,0,0,2015,0,N
PA5000818,0,20,26-Nov-2015,19.09,0,0,2015,0,N
PA5000891,0,3,26-Nov-2015,-10.95,12,0,2015,0,N
PA5000892,0,3,26-Nov-2015,-10.95,12,0,2015,0,N
PA5000893,0,3,26-Nov-2015,-9.65,12,0,2015,0,N
PA5000894,0,3,26-Nov-2015,-9.65,12,0,2015,0,N
PA5001068,0,3,26-Nov-2015,0.05,12,0,2015,0,N
PA5001069,0,3,26-Nov-2015,0.02,12,0,2015,0,N
PA5001070,0,3,26-Nov-2015,-1.00,12,0,2015,0,N
PA5001071,0,3,26-Nov-2015,0.61,12,0,2015,0,N
PA5001072,0,3,26-Nov-2015,-0.26,12,0,2015,0,N
PA5001073,0,3,26-Nov-2015,0.82,12,0,2015,0,N
PA5001074,0,3,26-Nov-2015,-2.23,12,0,2015,0,N
PA5001075,0,3,26-Nov-2015,0.82,12,0,2015,0,N
PA5001080,6,1,26-Nov-2015,472.00,0,0,2015,0,N
PA5001080,6,2,26-Nov-2015,472.50,0,0,2015,0,N
PA5001085,6,1,26-Nov-2015,477.50,0,0,2015,0,N
PA5001085,6,2,26-Nov-2015,478.00,0,0,2015,0,N
PA5001088,6,1,26-Nov-2015,467.50,0,0,2015,0,N
PA5001088,6,2,26-Nov-2015,468.00,0,0,2015,0,N
PA5001125,0,20,26-Nov-2015,34.81,0,0,2015,0,N
PA5001126,0,20,26-Nov-2015,39.00,0,0,2015,0,N
PA5001222,2,49,26-Nov-2015,-14.70,1,1,2016,0,N
PA5001283,6,1,26-Nov-2015,46.08,0,0,2015,0,N
PA5001283,6,2,26-Nov-2015,46.18,0,0,2015,0,N
PA5001320,0,3,26-Nov-2015,-8.11,12,0,2015,0,N
PA5001456,8,1,26-Nov-2015,44.04,1,0,2016,0,N
PA5001456,8,2,26-Nov-2015,44.14,1,0,2016,0,N
PA5001456,8,3,26-Nov-2015,0.40,1,0,2016,0,N
PA5001456,8,8,26-Nov-2015,44.09,1,0,2016,0,N
PA5001466,0,8,26-Nov-2015,46.75,10,0,2015,0,N
PA5001478,6,8,26-Nov-2015,417.250,0,12,2015,0,N
PA5001538,8,1,26-Nov-2015,38.70,1,1,2016,1,N
PA5001538,8,2,26-Nov-2015,38.80,1,1,2016,1,N
PA5001538,8,3,26-Nov-2015,0.300,1,1,2016,1,N
PA5001542,8,1,26-Nov-2015,33.80,1,1,2016,1,N
PA5001542,8,2,26-Nov-2015,33.90,1,1,2016,1,N
PA5001542,8,3,26-Nov-2015,0.200,1,1,2016,1,N
PA0013037,0,18,27-Nov-2015,46.95,0,0,2015,0,N
PA0013037,0,19,27-Nov-2015,48.05,0,0,2015,0,N
PA0013037,0,50,27-Nov-2015,3.88,0,0,2015,0,N
PA0013038,0,18,27-Nov-2015,43.85,0,0,2015,0,N
PA0013038,0,19,27-Nov-2015,48.28,0,0,2015,0,N
PA0013038,0,50,27-Nov-2015,2.98,0,0,2015,0,N
PA0013039,0,18,27-Nov-2015,46.53,0,0,2015,0,N
PA0013039,0,19,27-Nov-2015,47.43,0,0,2015,0,N
PA0013039,0,50,27-Nov-2015,3.62,0,0,2015,0,N
PA0013040,0,18,27-Nov-2015,53.83,0,0,2015,0,N
PA0013040,0,19,27-Nov-2015,54.73,0,0,2015,0,N
PA0013040,0,50,27-Nov-2015,10.92,0,0,2015,0,N
PA0013041,0,18,27-Nov-2015,46.69,0,0,2015,0,N
PA0013041,0,19,27-Nov-2015,51.12,0,0,2015,0,N
PA0013041,0,50,27-Nov-2015,5.82,0,0,2015,0,N
PA0013042,0,18,27-Nov-2015,50.54,0,0,2015,0,N
PA0013042,0,19,27-Nov-2015,51.64,0,0,2015,0,N
PA0013042,0,50,27-Nov-2015,7.47,0,0,2015,0,N
PA0013043,0,18,27-Nov-2015,47.14,0,0,2015,0,N
PA0013043,0,19,27-Nov-2015,48.20,0,0,2015,0,N
PA0013043,0,50,27-Nov-2015,4.09,0,0,2015,0,N
PA0013044,0,18,27-Nov-2015,44.28,0,0,2015,0,N
PA0013044,0,19,27-Nov-2015,44.28,0,0,2015,0,N
PA0013044,0,50,27-Nov-2015,5.40,0,0,2015,0,N
PA0013045,0,18,27-Nov-2015,45.15,0,0,2015,0,N
PA0013045,0,19,27-Nov-2015,47.27,0,0,2015,0,N
PA0013045,0,50,27-Nov-2015,4.70,0,0,2015,0,N
PA0013046,0,18,27-Nov-2015,51.70,0,0,2015,0,N
PA0013046,0,19,27-Nov-2015,53.82,0,0,2015,0,N
PA0013046,0,50,27-Nov-2015,11.25,0,0,2015,0,N
PA0013047,0,18,27-Nov-2015,49.05,0,0,2015,0,N
PA0013047,0,19,27-Nov-2015,49.05,0,0,2015,0,N
PA0013047,0,50,27-Nov-2015,10.18,0,0,2015,0,N
PA0013048,0,18,27-Nov-2015,50.27,0,0,2015,0,N
PA0013048,0,19,27-Nov-2015,51.33,0,0,2015,0,N
PA0013048,0,50,27-Nov-2015,7.22,0,0,2015,0,N
PA0013049,0,18,27-Nov-2015,46.53,0,0,2015,0,N
PA0013049,0,19,27-Nov-2015,46.53,0,0,2015,0,N
PA0013049,0,50,27-Nov-2015,5.60,0,0,2015,0,N
PA0013050,0,18,27-Nov-2015,39.90,0,0,2015,0,N
PA0013050,0,19,27-Nov-2015,42.12,0,0,2015,0,N
PA0013050,0,50,27-Nov-2015,1.67,0,0,2015,0,N
PA0013051,0,18,27-Nov-2015,42.14,0,0,2015,0,N
PA0013051,0,19,27-Nov-2015,44.30,0,0,2015,0,N
PA0013051,0,50,27-Nov-2015,3.91,0,0,2015,0,N
PA0013052,0,18,27-Nov-2015,50.96,0,0,2015,0,N
PA0013052,0,19,27-Nov-2015,53.13,0,0,2015,0,N
PA0013052,0,50,27-Nov-2015,12.73,0,0,2015,0,N
PA0013053,0,18,27-Nov-2015,46.28,0,0,2015,0,N
PA0013053,0,19,27-Nov-2015,48.50,0,0,2015,0,N
PA0013053,0,50,27-Nov-2015,8.05,0,0,2015,0,N
PA0013054,0,18,27-Nov-2015,49.80,0,0,2015,0,N
PA0013054,0,19,27-Nov-2015,49.80,0,0,2015,0,N
PA0013054,0,50,27-Nov-2015,8.87,0,0,2015,0,N
PA0013055,0,18,27-Nov-2015,47.13,0,0,2015,0,N
PA0013055,0,19,27-Nov-2015,49.23,0,0,2015,0,N
PA0013055,0,50,27-Nov-2015,3.45,0,0,2015,0,N
PA0013056,0,18,27-Nov-2015,48.72,0,0,2015,0,N
PA0013056,0,19,27-Nov-2015,48.72,0,0,2015,0,N
PA0013056,0,50,27-Nov-2015,5.60,0,0,2015,0,N
PA0013057,0,18,27-Nov-2015,48.62,0,0,2015,0,N
PA0013057,0,19,27-Nov-2015,49.65,0,0,2015,0,N
PA0013057,0,50,27-Nov-2015,3.39,0,0,2015,0,N
PA0013058,0,18,27-Nov-2015,53.77,0,0,2015,0,N
PA0013058,0,19,27-Nov-2015,54.80,0,0,2015,0,N
PA0013058,0,50,27-Nov-2015,8.54,0,0,2015,0,N
PA0013059,0,18,27-Nov-2015,51.85,0,0,2015,0,N
PA0013059,0,19,27-Nov-2015,51.85,0,0,2015,0,N
PA0013059,0,50,27-Nov-2015,8.73,0,0,2015,0,N
PA0013060,0,18,27-Nov-2015,49.02,0,0,2015,0,N
PA0013060,0,19,27-Nov-2015,51.11,0,0,2015,0,N
PA0013060,0,50,27-Nov-2015,5.34,0,0,2015,0,N
PA0013061,0,18,27-Nov-2015,46.26,0,0,2015,0,N
PA0013061,0,19,27-Nov-2015,48.02,0,0,2015,0,N
PA0013061,0,50,27-Nov-2015,2.48,0,0,2015,0,N
PA0013062,0,18,27-Nov-2015,45.99,0,0,2015,0,N
PA0013062,0,19,27-Nov-2015,48.59,0,0,2015,0,N
PA0013062,0,50,27-Nov-2015,2.31,0,0,2015,0,N
PA0013063,0,18,27-Nov-2015,48.16,0,0,2015,0,N
PA0013063,0,19,27-Nov-2015,50.20,0,0,2015,0,N
PA0013063,0,50,27-Nov-2015,4.05,0,0,2015,0,N
PA0013064,0,18,27-Nov-2015,53.37,0,0,2015,0,N
PA0013064,0,19,27-Nov-2015,55.40,0,0,2015,0,N
PA0013064,0,50,27-Nov-2015,9.25,0,0,2015,0,N
PA0013065,0,18,27-Nov-2015,48.08,0,0,2015,0,N
PA0013065,0,19,27-Nov-2015,50.67,0,0,2015,0,N
PA0013065,0,50,27-Nov-2015,4.40,0,0,2015,0,N
PA0013066,0,18,27-Nov-2015,50.60,0,0,2015,0,N
PA0013066,0,19,27-Nov-2015,52.37,0,0,2015,0,N
PA0013066,0,50,27-Nov-2015,6.83,0,0,2015,0,N
PA0013067,0,18,27-Nov-2015,40.53,0,0,2015,0,N
PA0013067,0,19,27-Nov-2015,42.44,0,0,2015,0,N
PA0013067,0,50,27-Nov-2015,2.30,0,0,2015,0,N
PA0013068,0,18,27-Nov-2015,36.36,0,0,2015,0,N
PA0013068,0,19,27-Nov-2015,39.22,0,0,2015,0,N
PA0013068,0,50,27-Nov-2015,2.54,0,0,2015,0,N
PA0013069,0,18,27-Nov-2015,45.99,0,0,2015,0,N
PA0013069,0,19,27-Nov-2015,48.11,0,0,2015,0,N
PA0013070,0,18,27-Nov-2015,52.40,0,0,2015,0,N
PA0013070,0,19,27-Nov-2015,54.53,0,0,2015,0,N
PA0013071,0,18,27-Nov-2015,45.23,0,0,2015,0,N
PA0013071,0,19,27-Nov-2015,48.10,0,0,2015,0,N
PA0013071,0,50,27-Nov-2015,11.42,0,0,2015,0,N
PA0013072,0,18,27-Nov-2015,45.89,0,0,2015,0,N
PA0013072,0,19,27-Nov-2015,47.80,0,0,2015,0,N
PA0013072,0,50,27-Nov-2015,7.66,0,0,2015,0,N
PA0013073,0,18,27-Nov-2015,43.51,0,0,2015,0,N
PA0013073,0,19,27-Nov-2015,45.70,0,0,2015,0,N
PA0013074,0,18,27-Nov-2015,49.80,0,0,2015,0,N
PA0013074,0,19,27-Nov-2015,51.99,0,0,2015,0,N
PA0013075,0,18,27-Nov-2015,44.07,0,0,2015,0,N
PA0013075,0,19,27-Nov-2015,45.94,0,0,2015,0,N
PA0013076,0,18,27-Nov-2015,47.47,0,0,2015,0,N
PA0013076,0,19,27-Nov-2015,49.34,0,0,2015,0,N
PA0013077,0,18,27-Nov-2015,41.01,0,0,2015,0,N
PA0013077,0,19,27-Nov-2015,42.95,0,0,2015,0,N
PA0013078,0,18,27-Nov-2015,43.77,0,0,2015,0,N
PA0013078,0,19,27-Nov-2015,45.71,0,0,2015,0,N
PA0013079,0,18,27-Nov-2015,44.21,0,0,2015,0,N
PA0013079,0,19,27-Nov-2015,46.38,0,0,2015,0,N
PA0013080,0,18,27-Nov-2015,48.38,0,0,2015,0,N
PA0013080,0,19,27-Nov-2015,50.56,0,0,2015,0,N
PA0013081,0,18,27-Nov-2015,42.46,0,0,2015,0,N
PA0013081,0,19,27-Nov-2015,44.62,0,0,2015,0,N
PA0013082,0,18,27-Nov-2015,46.95,0,0,2015,0,N
PA0013082,0,19,27-Nov-2015,49.12,0,0,2015,0,N
PA5000433,2,8,27-Nov-2015,44.42,0,0,2015,0,N
PA5000434,6,8,27-Nov-2015,46.75,0,0,2015,0,N
PA5000434,8,3,27-Nov-2015,2.84,0,0,2015,0,N
PA5000435,6,3,27-Nov-2015,0.00,0,0,2015,0,N
PA5000435,6,8,27-Nov-2015,43.91,0,0,2015,0,N
PA5000436,6,3,27-Nov-2015,-0.80,0,0,2015,0,N
PA5000436,6,8,27-Nov-2015,43.11,0,0,2015,0,N
PA5000438,6,3,27-Nov-2015,-1.40,0,0,2015,0,N
PA5000438,6,8,27-Nov-2015,42.51,0,0,2015,0,N
PA5000440,8,3,27-Nov-2015,2.00,0,0,2015,0,N
PA5000440,8,8,27-Nov-2015,43.07,0,0,2015,0,N
PA5000441,6,8,27-Nov-2015,45.07,0,0,2015,0,N
PA5000441,8,3,27-Nov-2015,1.16,0,0,2015,0,N
PA5000443,6,3,27-Nov-2015,-0.63,0,0,2015,0,N
PA5000443,6,8,27-Nov-2015,43.28,0,0,2015,0,N
PA5000446,8,3,27-Nov-2015,3.10,0,0,2015,0,N
PA5000446,8,8,27-Nov-2015,42.17,0,0,2015,0,N
PA5000447,6,3,27-Nov-2015,-1.70,0,0,2015,0,N
PA5000447,6,8,27-Nov-2015,42.21,0,0,2015,0,N
PA5000448,6,3,27-Nov-2015,0.00,0,0,2015,0,N
PA5000448,6,8,27-Nov-2015,43.91,0,0,2015,0,N
PA5000450,6,3,27-Nov-2015,-1.95,0,0,2015,0,N
PA5000450,6,8,27-Nov-2015,41.96,0,0,2015,0,N
PA5000451,6,3,27-Nov-2015,0.25,0,0,2015,0,N
PA5000451,6,8,27-Nov-2015,44.16,0,0,2015,0,N
PA5000452,6,3,27-Nov-2015,-0.59,0,0,2015,0,N
PA5000452,6,8,27-Nov-2015,43.32,0,0,2015,0,N
PA5000454,6,3,27-Nov-2015,-2.56,0,0,2015,0,N
PA5000454,6,8,27-Nov-2015,41.35,0,0,2015,0,N
PA5000455,6,3,27-Nov-2015,-1.31,0,0,2015,0,N
PA5000455,6,8,27-Nov-2015,42.60,0,0,2015,0,N
PA5000456,6,8,27-Nov-2015,45.47,0,0,2015,0,N
PA5000457,2,8,27-Nov-2015,41.97,0,0,2015,0,N
PA5000459,8,3,27-Nov-2015,2.00,0,0,2015,0,N
PA5000459,8,8,27-Nov-2015,43.07,0,0,2015,0,N
PA5000460,8,3,27-Nov-2015,0.50,0,0,2015,0,N
PA5000460,8,8,27-Nov-2015,44.19,0,0,2015,0,N
PA5000461,6,8,27-Nov-2015,45.93,0,0,2015,0,N
PA5000461,8,3,27-Nov-2015,2.02,0,0,2015,0,N
PA5000463,6,3,27-Nov-2015,0.67,0,0,2015,0,N
PA5000463,6,8,27-Nov-2015,44.58,0,0,2015,0,N
PA5000464,8,3,27-Nov-2015,0.00,0,0,2015,0,N
PA5000464,8,8,27-Nov-2015,42.64,0,0,2015,0,N
PA5000465,8,3,27-Nov-2015,-0.40,0,0,2015,0,N
PA5000465,8,8,27-Nov-2015,39.99,0,0,2015,0,N
PA5000466,6,3,27-Nov-2015,0.22,0,0,2015,0,N
PA5000466,6,8,27-Nov-2015,44.13,0,0,2015,0,N
PA5000467,6,3,27-Nov-2015,0.17,0,0,2015,0,N
PA5000467,6,8,27-Nov-2015,44.08,0,0,2015,0,N
PA5000468,6,3,27-Nov-2015,-1.06,0,0,2015,0,N
PA5000468,6,8,27-Nov-2015,42.85,0,0,2015,0,N
PA5000469,6,3,27-Nov-2015,0.25,0,0,2015,0,N
PA5000469,6,8,27-Nov-2015,44.16,0,0,2015,0,N
PA5000470,6,3,27-Nov-2015,-3.24,0,0,2015,0,N
PA5000470,6,8,27-Nov-2015,40.67,0,0,2015,0,N
PA5000473,6,3,27-Nov-2015,0.30,0,0,2015,0,N
PA5000473,6,8,27-Nov-2015,44.21,0,0,2015,0,N
PA5000474,6,3,27-Nov-2015,-1.54,0,0,2015,0,N
PA5000474,6,8,27-Nov-2015,42.37,0,0,2015,0,N
PA5000475,6,3,27-Nov-2015,-2.53,0,0,2015,0,N
PA5000475,6,8,27-Nov-2015,41.38,0,0,2015,0,N
PA5000476,8,3,27-Nov-2015,2.50,0,0,2015,0,N
PA5000476,8,8,27-Nov-2015,43.57,0,0,2015,0,N
PA5000478,6,8,27-Nov-2015,355.60,0,0,2015,0,N
PA5000479,6,8,27-Nov-2015,358.60,0,0,2015,0,N
PA5000480,2,8,27-Nov-2015,62.50,0,0,2015,0,N
PA5000481,6,8,27-Nov-2015,375.80,0,0,2015,0,N
PA5000482,6,8,27-Nov-2015,378.00,0,0,2015,0,N
PA5000483,2,8,27-Nov-2015,42.40,0,0,2015,0,N
PA5000484,6,8,27-Nov-2015,209.80,0,0,2015,0,N
PA5000485,6,8,27-Nov-2015,214.60,0,0,2015,0,N
PA5000486,6,8,27-Nov-2015,197.95,0,0,2015,0,N
PA5000487,6,8,27-Nov-2015,185.45,0,0,2015,0,N
PA5000488,2,8,27-Nov-2015,205.83,0,0,2015,0,N
PA5000489,8,8,27-Nov-2015,237.10,0,0,2015,0,N
PA5000490,8,8,27-Nov-2015,203.20,0,0,2015,0,N
PA5000491,8,8,27-Nov-2015,197.95,0,0,2015,0,N
PA5000494,2,8,27-Nov-2015,32.13,0,0,2015,0,N
PA5000496,2,8,27-Nov-2015,31.50,0,0,2015,0,N
PA5000498,2,8,27-Nov-2015,30.38,0,0,2015,0,N
PA5000499,8,8,27-Nov-2015,52.79,0,0,2015,0,N
PA5000500,2,8,27-Nov-2015,139.28,0,0,2015,0,N
PA5000501,6,8,27-Nov-2015,429.45,0,0,2015,0,N
PA5000502,6,8,27-Nov-2015,427.55,0,0,2015,0,N
PA5000503,6,8,27-Nov-2015,413.75,0,0,2015,0,N
PA5000504,6,8,27-Nov-2015,413.00,0,0,2015,0,N
PA5000505,8,8,27-Nov-2015,55.46,0,0,2015,0,N
PA5000506,8,8,27-Nov-2015,58.81,0,0,2015,0,N
PA5000509,2,8,27-Nov-2015,139.71,0,0,2015,0,N
PA5000510,2,8,27-Nov-2015,123.37,0,0,2015,0,N
PA5000513,2,8,27-Nov-2015,154.17,0,0,2015,0,N
PA5000514,2,8,27-Nov-2015,139.50,0,0,2015,0,N
PA5000515,8,8,27-Nov-2015,56.67,0,0,2015,0,N
PA5000517,8,8,27-Nov-2015,58.27,0,0,2015,0,N
PA5000520,8,8,27-Nov-2015,58.10,0,0,2015,0,N
PA5000521,8,8,27-Nov-2015,54.22,0,0,2015,0,N
PA5000522,6,8,27-Nov-2015,450.45,0,0,2015,0,N
PA5000523,8,8,27-Nov-2015,56.20,0,0,2015,0,N
PA5000524,2,8,27-Nov-2015,131.33,0,0,2015,0,N
PA5000525,6,8,27-Nov-2015,430.55,0,0,2015,0,N
PA5000526,2,8,27-Nov-2015,144.22,0,0,2015,0,N
PA5000527,2,8,27-Nov-2015,140.99,0,0,2015,0,N
PA5000529,6,8,27-Nov-2015,427.70,0,0,2015,0,N
PA5000530,6,8,27-Nov-2015,417.65,0,0,2015,0,N
PA5000531,8,8,27-Nov-2015,452.15,0,0,2015,0,N
PA5000532,8,8,27-Nov-2015,427.70,0,0,2015,0,N
PA5000533,2,8,27-Nov-2015,124.56,0,0,2015,0,N
PA5000534,2,8,27-Nov-2015,117.55,0,0,2015,0,N
PA5000535,6,8,27-Nov-2015,306.03,0,0,2015,0,N
PA5000536,6,8,27-Nov-2015,302.53,0,0,2015,0,N
PA5000537,6,8,27-Nov-2015,298.70,0,0,2015,0,N
PA5000538,6,3,27-Nov-2015,-1.70,0,0,2015,0,N
PA5000538,6,8,27-Nov-2015,42.21,0,0,2015,0,N
PA5000539,6,3,27-Nov-2015,-0.80,0,0,2015,0,N
PA5000539,6,8,27-Nov-2015,43.11,0,0,2015,0,N
PA5000540,6,3,27-Nov-2015,-1.13,0,0,2015,0,N
PA5000540,6,8,27-Nov-2015,43.91,0,0,2015,0,N
PA5000542,6,8,27-Nov-2015,44.24,0,0,2015,0,N
PA5000543,6,8,27-Nov-2015,45.04,0,0,2015,0,N
PA5000544,6,8,27-Nov-2015,45.84,0,0,2015,0,N
PA5000546,6,8,27-Nov-2015,40.29,0,0,2015,0,N
PA5000547,6,8,27-Nov-2015,41.74,0,0,2015,0,N
PA5000548,6,8,27-Nov-2015,42.55,0,0,2015,0,N
PA5000549,8,3,27-Nov-2015,-1.72,0,0,2015,0,N
PA5000549,8,8,27-Nov-2015,40.51,0,0,2015,0,N
PA5000550,9,8,27-Nov-2015,41.02,0,0,2015,0,N
PA5000551,9,8,27-Nov-2015,42.55,0,0,2015,0,N
PA5000552,9,8,27-Nov-2015,43.96,0,0,2015,0,N
PA5000556,2,8,27-Nov-2015,141.87,0,0,2015,0,N
PA5000644,2,8,27-Nov-2015,142.19,0,0,2015,0,N
PA5000654,8,3,27-Nov-2015,1.46,0,0,2015,0,N
PA5000654,8,8,27-Nov-2015,57.25,0,0,2015,0,N
PA5000759,2,8,27-Nov-2015,140.02,0,0,2015,0,N
PA5000762,2,8,27-Nov-2015,132.74,0,0,2015,0,N
PA5000819,6,6,27-Nov-2015,-6.00,0,0,2015,0,N
PA5000819,6,7,27-Nov-2015,-5.50,0,0,2015,0,N
PA5001081,6,1,27-Nov-2015,466.70,0,0,2015,0,N
PA5001081,6,2,27-Nov-2015,467.20,0,0,2015,0,N
PA5001086,6,1,27-Nov-2015,472.30,0,0,2015,0,N
PA5001086,6,2,27-Nov-2015,472.80,0,0,2015,0,N
PA5001093,8,1,27-Nov-2015,221.85,0,0,2015,0,N
PA5001093,8,2,27-Nov-2015,222.85,0,0,2015,0,N
PA5001093,8,6,27-Nov-2015,-3.20,0,0,2015,0,N
PA5001093,8,7,27-Nov-2015,-2.20,0,0,2015,0,N
PA5001095,8,1,27-Nov-2015,48.87,0,0,2015,0,N
PA5001095,8,2,27-Nov-2015,49.00,0,0,2015,0,N
PA5001095,8,6,27-Nov-2015,0.35,0,0,2015,0,N
PA5001095,8,7,27-Nov-2015,0.55,0,0,2015,0,N
PA5001102,0,3,27-Nov-2015,-0.40,0,0,2015,0,N
PA5001110,8,1,27-Nov-2015,216.60,0,0,2015,0,N
PA5001110,8,2,27-Nov-2015,217.60,0,0,2015,0,N
PA5001110,8,6,27-Nov-2015,-2.15,0,0,2015,0,N
PA5001110,8,7,27-Nov-2015,-1.15,0,0,2015,0,N
PA5001223,2,4,27-Nov-2015,29.65,0,0,2015,0,N
PA5001223,2,49,27-Nov-2015,-14.71,0,0,2015,0,N
PA5001229,2,4,27-Nov-2015,39.07,0,0,2015,0,N
PA5001229,2,49,27-Nov-2015,-1.950,0,0,2015,0,N
PA5001233,2,4,27-Nov-2015,42.62,0,0,2015,0,N
PA5001233,2,49,27-Nov-2015,1.600,0,0,2015,0,N
PA5001237,2,4,27-Nov-2015,40.40,0,0,2015,0,N
PA5001237,2,49,27-Nov-2015,-0.623,0,0,2015,0,N
PA5001245,2,4,27-Nov-2015,40.57,0,0,2015,0,N
PA5001245,2,49,27-Nov-2015,-0.457,0,0,2015,0,N
PA5001249,2,4,27-Nov-2015,43.50,0,0,2015,0,N
PA5001249,2,49,27-Nov-2015,2.477,0,0,2015,0,N
PA5001286,6,1,27-Nov-2015,46.16,0,0,2015,0,N
PA5001286,6,2,27-Nov-2015,46.26,0,0,2015,0,N
PA5001310,8,1,27-Nov-2015,45.47,0,0,2015,0,N
PA5001310,8,2,27-Nov-2015,45.57,0,0,2015,0,N
PA5001310,8,3,27-Nov-2015,3.296,0,0,2015,0,N
PA5001313,2,1,27-Nov-2015,156.83,0,0,2015,0,N
PA5001313,2,2,27-Nov-2015,158.42,0,0,2015,0,N
PA5001323,8,8,27-Nov-2015,36.206,0,0,2015,0,N
PA5001329,8,1,27-Nov-2015,45.77,0,1,2015,0,N
PA5001329,8,2,27-Nov-2015,45.87,0,1,2015,0,N
PA5001329,8,3,27-Nov-2015,3.950,0,1,2015,0,N
PA5001331,8,1,27-Nov-2015,156.33,0,0,2015,0,N
PA5001331,8,2,27-Nov-2015,159.00,0,0,2015,0,N
PA5001354,2,8,27-Nov-2015,38.44,0,0,2015,0,N
PA5001375,2,1,27-Nov-2015,42.95,0,0,2015,0,N
PA5001375,2,2,27-Nov-2015,44.03,0,0,2015,0,N
PA5001375,2,6,27-Nov-2015,-1.42,0,0,2015,0,N
PA5001375,2,7,27-Nov-2015,-0.33,0,0,2015,0,N
PA5001459,8,3,27-Nov-2015,0.40,0,0,2015,0,N
PA5001459,8,8,27-Nov-2015,43.54,0,0,2015,0,N
PA5001464,8,8,27-Nov-2015,45.296,0,0,2015,0,N
PA5001465,8,8,27-Nov-2015,40.306,0,0,2015,0,N
PA5001512,0,3,27-Nov-2015,-8.15,12,0,2015,0,N
PA5001513,0,3,27-Nov-2015,-10.55,12,0,2015,0,N
PA5001514,0,3,27-Nov-2015,-5.85,12,0,2015,0,N
PA5001541,8,1,27-Nov-2015,38.25,0,0,2015,0,N
PA5001541,8,2,27-Nov-2015,38.35,0,0,2015,0,N
PA5001541,8,3,27-Nov-2015,0.300,0,0,2015,0,N
PA5001545,8,1,27-Nov-2015,33.35,0,0,2015,0,N
PA5001545,8,2,27-Nov-2015,33.45,0,0,2015,0,N
PA5001545,8,3,27-Nov-2015,0.200,0,0,2015,0,N
PA5000002,2,8,30-Nov-2015,44.97,0,0,2015,0,N
PA5000003,6,8,30-Nov-2015,46.96,0,0,2015,0,N
PA5000003,8,3,30-Nov-2015,2.80,0,0,2015,0,N
PA5000004,6,3,30-Nov-2015,0.25,0,0,2015,0,N
PA5000004,6,8,30-Nov-2015,44.51,0,0,2015,0,N
PA5000005,6,3,30-Nov-2015,-0.42,0,0,2015,0,N
PA5000005,6,8,30-Nov-2015,43.84,0,0,2015,0,N
PA5000007,6,3,30-Nov-2015,-1.50,0,0,2015,0,N
PA5000007,6,8,30-Nov-2015,42.76,0,0,2015,0,N
PA5000009,8,3,30-Nov-2015,2.00,0,0,2015,0,N
PA5000009,8,8,30-Nov-2015,43.39,0,0,2015,0,N
PA5000010,6,8,30-Nov-2015,45.24,0,0,2015,0,N
PA5000010,8,3,30-Nov-2015,1.08,0,0,2015,0,N
PA5000012,6,3,30-Nov-2015,-0.59,0,0,2015,0,N
PA5000012,6,8,30-Nov-2015,43.66,0,0,2015,0,N
PA5000015,8,3,30-Nov-2015,3.10,0,0,2015,0,N
PA5000015,8,8,30-Nov-2015,42.49,0,0,2015,0,N
PA5000016,6,3,30-Nov-2015,-1.70,0,0,2015,0,N
PA5000016,6,8,30-Nov-2015,42.56,0,0,2015,0,N
PA5000017,6,3,30-Nov-2015,0.20,0,0,2015,0,N
PA5000017,6,8,30-Nov-2015,44.46,0,0,2015,0,N
PA5000019,6,3,30-Nov-2015,-1.33,0,0,2015,0,N
PA5000019,6,8,30-Nov-2015,42.93,0,0,2015,0,N
PA5000020,6,3,30-Nov-2015,0.47,0,0,2015,0,N
PA5000020,6,8,30-Nov-2015,44.73,0,0,2015,0,N
PA5000021,6,3,30-Nov-2015,-0.76,0,0,2015,0,N
PA5000021,6,8,30-Nov-2015,43.50,0,0,2015,0,N
PA5000023,6,3,30-Nov-2015,-3.47,0,0,2015,0,N
PA5000023,6,8,30-Nov-2015,40.79,0,0,2015,0,N
PA5000024,6,3,30-Nov-2015,-2.20,0,0,2015,0,N
PA5000024,6,8,30-Nov-2015,42.06,0,0,2015,0,N
PA5000025,6,8,30-Nov-2015,45.49,0,0,2015,0,N
PA5000026,2,8,30-Nov-2015,42.25,0,0,2015,0,N
PA5000028,8,3,30-Nov-2015,2.00,0,0,2015,0,N
PA5000028,8,8,30-Nov-2015,43.39,0,0,2015,0,N
PA5000029,8,3,30-Nov-2015,0.26,0,0,2015,0,N
PA5000029,8,8,30-Nov-2015,45.67,0,0,2015,0,N
PA5000030,6,8,30-Nov-2015,45.03,0,0,2015,0,N
PA5000030,8,3,30-Nov-2015,0.87,0,0,2015,0,N
PA5000032,6,3,30-Nov-2015,0.62,0,0,2015,0,N
PA5000032,6,8,30-Nov-2015,44.88,0,0,2015,0,N
PA5000033,8,3,30-Nov-2015,0.00,0,0,2015,0,N
PA5000033,8,8,30-Nov-2015,44.30,0,0,2015,0,N
PA5000034,8,3,30-Nov-2015,-0.16,0,0,2015,0,N
PA5000034,8,8,30-Nov-2015,42.01,0,0,2015,0,N
PA5000035,6,3,30-Nov-2015,0.35,0,0,2015,0,N
PA5000035,6,8,30-Nov-2015,44.61,0,0,2015,0,N
PA5000036,6,3,30-Nov-2015,0.28,0,0,2015,0,N
PA5000036,6,8,30-Nov-2015,44.54,0,0,2015,0,N
PA5000037,6,3,30-Nov-2015,-1.00,0,0,2015,0,N
PA5000037,6,8,30-Nov-2015,43.26,0,0,2015,0,N
PA5000038,6,3,30-Nov-2015,0.26,0,0,2015,0,N
PA5000038,6,8,30-Nov-2015,44.52,0,0,2015,0,N
PA5000039,6,3,30-Nov-2015,-3.59,0,0,2015,0,N
PA5000039,6,8,30-Nov-2015,40.67,0,0,2015,0,N
PA5000042,6,3,30-Nov-2015,0.13,0,0,2015,0,N
PA5000042,6,8,30-Nov-2015,44.39,0,0,2015,0,N
PA5000043,6,3,30-Nov-2015,-1.89,0,0,2015,0,N
PA5000043,6,8,30-Nov-2015,42.37,0,0,2015,0,N
PA5000044,6,3,30-Nov-2015,-3.13,0,0,2015,0,N
PA5000044,6,8,30-Nov-2015,41.13,0,0,2015,0,N
PA5000045,8,3,30-Nov-2015,2.50,0,0,2015,0,N
PA5000045,8,8,30-Nov-2015,43.89,0,0,2015,0,N
PA5000047,6,8,30-Nov-2015,359.05,0,0,2015,0,N
PA5000048,6,8,30-Nov-2015,361.62,0,0,2015,0,N
PA5000049,2,8,30-Nov-2015,62.56,0,0,2015,0,N
PA5000050,6,8,30-Nov-2015,365.12,0,0,2015,0,N
PA5000051,6,8,30-Nov-2015,368.10,0,0,2015,0,N
PA5000052,2,8,30-Nov-2015,42.95,0,0,2015,0,N
PA5000053,6,8,30-Nov-2015,216.01,0,0,2015,0,N
PA5000054,6,8,30-Nov-2015,219.30,0,0,2015,0,N
PA5000055,6,8,30-Nov-2015,203.76,0,0,2015,0,N
PA5000056,6,8,30-Nov-2015,188.90,0,0,2015,0,N
PA5000057,2,8,30-Nov-2015,216.37,0,0,2015,0,N
PA5000058,8,8,30-Nov-2015,242.40,0,0,2015,0,N
PA5000059,8,8,30-Nov-2015,211.58,0,0,2015,0,N
PA5000060,8,8,30-Nov-2015,206.34,0,0,2015,0,N
PA5000063,2,8,30-Nov-2015,33.98,0,0,2015,0,N
PA5000065,2,8,30-Nov-2015,32.62,0,0,2015,0,N
PA5000067,2,8,30-Nov-2015,31.77,0,0,2015,0,N
PA5000068,8,8,30-Nov-2015,53.98,0,0,2015,0,N
PA5000069,2,8,30-Nov-2015,145.28,0,0,2015,0,N
PA5000070,6,8,30-Nov-2015,438.95,0,0,2015,0,N
PA5000071,6,8,30-Nov-2015,437.61,0,0,2015,0,N
PA5000072,6,8,30-Nov-2015,419.90,0,0,2015,0,N
PA5000073,6,8,30-Nov-2015,417.05,0,0,2015,0,N
PA5000074,8,8,30-Nov-2015,56.56,0,0,2015,0,N
PA5000075,8,8,30-Nov-2015,59.92,0,0,2015,0,N
PA5000078,2,8,30-Nov-2015,137.75,0,0,2015,0,N
PA5000079,2,8,30-Nov-2015,125.20,0,0,2015,0,N
PA5000082,2,8,30-Nov-2015,150.45,0,0,2015,0,N
PA5000083,2,8,30-Nov-2015,145.93,0,0,2015,0,N
PA5000084,8,8,30-Nov-2015,57.28,0,0,2015,0,N
PA5000086,8,8,30-Nov-2015,58.92,0,0,2015,0,N
PA5000089,8,8,30-Nov-2015,59.40,0,0,2015,0,N
PA5000090,8,8,30-Nov-2015,55.47,0,0,2015,0,N
PA5000091,6,8,30-Nov-2015,454.60,0,0,2015,0,N
PA5000092,8,8,30-Nov-2015,57.47,0,0,2015,0,N
PA5000093,2,8,30-Nov-2015,134.25,0,0,2015,0,N
PA5000094,6,8,30-Nov-2015,436.26,0,0,2015,0,N
PA5000095,2,8,30-Nov-2015,147.86,0,0,2015,0,N
PA5000096,2,8,30-Nov-2015,141.06,0,0,2015,0,N
PA5000098,6,8,30-Nov-2015,419.11,0,0,2015,0,N
PA5000099,6,8,30-Nov-2015,409.79,0,0,2015,0,N
PA5000100,8,8,30-Nov-2015,453.91,0,0,2015,0,N
PA5000101,8,8,30-Nov-2015,429.28,0,0,2015,0,N
PA5000102,2,8,30-Nov-2015,130.79,0,0,2015,0,N
PA5000103,2,8,30-Nov-2015,126.01,0,0,2015,0,N
PA5000104,6,8,30-Nov-2015,313.97,0,0,2015,0,N
PA5000105,6,8,30-Nov-2015,312.05,0,0,2015,0,N
PA5000106,6,8,30-Nov-2015,307.55,0,0,2015,0,N
PA5000107,6,3,30-Nov-2015,-1.65,0,0,2015,0,N
PA5000107,6,8,30-Nov-2015,42.61,0,0,2015,0,N
PA5000108,6,3,30-Nov-2015,-0.90,0,0,2015,0,N
PA5000108,6,8,30-Nov-2015,43.36,0,0,2015,0,N
PA5000109,6,3,30-Nov-2015,-1.75,0,0,2015,0,N
PA5000109,6,8,30-Nov-2015,44.26,0,0,2015,0,N
PA5000111,6,8,30-Nov-2015,45.04,0,0,2015,0,N
PA5000112,6,8,30-Nov-2015,45.96,0,0,2015,0,N
PA5000113,6,8,30-Nov-2015,46.78,0,0,2015,0,N
PA5000115,6,8,30-Nov-2015,41.55,0,0,2015,0,N
PA5000116,6,8,30-Nov-2015,42.99,0,0,2015,0,N
PA5000117,6,8,30-Nov-2015,43.74,0,0,2015,0,N
PA5000118,8,3,30-Nov-2015,-1.71,0,0,2015,0,N
PA5000118,8,8,30-Nov-2015,42.24,0,0,2015,0,N
PA5000119,9,8,30-Nov-2015,42.75,0,0,2015,0,N
PA5000120,9,8,30-Nov-2015,43.96,0,0,2015,0,N
PA5000121,9,8,30-Nov-2015,45.00,0,0,2015,0,N
PA5000125,2,8,30-Nov-2015,150.35,0,0,2015,0,N
PA5000569,8,8,30-Nov-2015,229.03,0,0,2015,0,N
PA5000642,2,8,30-Nov-2015,139.06,0,0,2015,0,N
PA5000655,8,3,30-Nov-2015,1.440,0,0,2015,0,N
PA5000655,8,8,30-Nov-2015,58.485,0,0,2015,0,N
PA5000760,2,8,30-Nov-2015,144.18,0,0,2015,0,N
PA5000763,2,8,30-Nov-2015,136.61,0,0,2015,0,N
PA5000820,6,6,30-Nov-2015,-5.67,0,0,2015,0,N
PA5000820,6,7,30-Nov-2015,-5.17,0,0,2015,0,N
PA5000822,0,3,30-Nov-2015,-1.59,0,0,2015,0,N
PA5000823,0,3,30-Nov-2015,-3.93,0,0,2015,0,N
PA5000824,0,3,30-Nov-2015,-5.18,0,0,2015,0,N
PA5000825,0,3,30-Nov-2015,-6.79,0,0,2015,0,N
PA5000826,2,8,30-Nov-2015,-0.45,0,0,2015,0,N
PA5000827,2,8,30-Nov-2015,-3.10,0,0,2015,0,N
PA5000828,2,8,30-Nov-2015,2.15,0,0,2015,0,N
PA5001078,6,1,30-Nov-2015,483.60,0,0,2015,0,N
PA5001078,6,2,30-Nov-2015,484.10,0,0,2015,0,N
PA5001083,6,1,30-Nov-2015,489.32,0,0,2015,0,N
PA5001083,6,2,30-Nov-2015,489.82,0,0,2015,0,N
PA5001111,8,1,30-Nov-2015,223.29,0,0,2015,0,N
PA5001111,8,2,30-Nov-2015,224.29,0,0,2015,0,N
PA5001111,8,6,30-Nov-2015,-2.85,0,0,2015,0,N
PA5001111,8,7,30-Nov-2015,-1.85,0,0,2015,0,N
PA5001116,6,1,30-Nov-2015,316.45,0,0,2015,0,N
PA5001116,6,2,30-Nov-2015,319.87,0,0,2015,0,N
PA5001117,6,1,30-Nov-2015,303.95,0,0,2015,0,N
PA5001117,6,2,30-Nov-2015,307.32,0,0,2015,0,N
PA5001118,6,6,30-Nov-2015,10.38,0,0,2015,0,N
PA5001118,6,7,30-Nov-2015,13.38,0,0,2015,0,N
PA5001119,6,1,30-Nov-2015,473.60,0,0,2015,0,N
PA5001119,6,2,30-Nov-2015,474.10,0,0,2015,0,N
PA5001120,6,1,30-Nov-2015,438.56,0,0,2015,0,N
PA5001120,6,2,30-Nov-2015,439.56,0,0,2015,0,N
PA5001121,6,1,30-Nov-2015,473.60,0,0,2015,0,N
PA5001121,6,2,30-Nov-2015,474.10,0,0,2015,0,N
PA5001122,6,1,30-Nov-2015,405.40,0,0,2015,0,N
PA5001122,6,2,30-Nov-2015,425.60,0,0,2015,0,N
PA5001123,8,1,30-Nov-2015,49.12,0,0,2015,0,N
PA5001123,8,2,30-Nov-2015,49.24,0,0,2015,0,N
PA5001224,2,4,30-Nov-2015,29.94,0,0,2015,0,N
PA5001224,2,49,30-Nov-2015,-14.75,0,0,2015,0,N
PA5001227,2,4,30-Nov-2015,39.81,0,0,2015,0,N
PA5001227,2,49,30-Nov-2015,-2.936,0,0,2015,0,N
PA5001231,2,4,30-Nov-2015,43.54,0,0,2015,0,N
PA5001231,2,49,30-Nov-2015,0.798,0,0,2015,0,N
PA5001235,2,4,30-Nov-2015,42.05,0,0,2015,0,N
PA5001235,2,49,30-Nov-2015,-0.693,0,0,2015,0,N
PA5001243,2,4,30-Nov-2015,41.89,0,0,2015,0,N
PA5001243,2,49,30-Nov-2015,-0.851,0,0,2015,0,N
PA5001247,2,4,30-Nov-2015,44.39,0,0,2015,0,N
PA5001247,2,49,30-Nov-2015,1.642,0,0,2015,0,N
PA5001277,8,8,30-Nov-2015,36.897,0,0,2015,0,N
PA5001284,6,1,30-Nov-2015,46.29,0,0,2015,0,N
PA5001284,6,2,30-Nov-2015,46.39,0,0,2015,0,N
PA5001311,2,1,30-Nov-2015,157.84,0,0,2015,0,N
PA5001311,2,2,30-Nov-2015,159.45,0,0,2015,0,N
PA5001327,8,1,30-Nov-2015,46.51,0,0,2015,0,N
PA5001327,8,2,30-Nov-2015,46.61,0,0,2015,0,N
PA5001327,8,3,30-Nov-2015,2.945,0,0,2015,0,N
PA5001332,8,1,30-Nov-2015,155.80,0,0,2015,0,N
PA5001332,8,2,30-Nov-2015,158.11,0,0,2015,0,N
PA5001352,2,8,30-Nov-2015,38.12,0,0,2015,0,N
PA5001373,2,1,30-Nov-2015,43.67,0,0,2015,0,N
PA5001373,2,2,30-Nov-2015,44.25,0,0,2015,0,N
PA5001373,2,6,30-Nov-2015,-1.03,0,0,2015,0,N
PA5001373,2,7,30-Nov-2015,-0.44,0,0,2015,0,N
PA5001457,8,3,30-Nov-2015,0.23,0,0,2015,0,N
PA5001457,8,8,30-Nov-2015,45.09,0,0,2015,0,N
PA5001460,8,8,30-Nov-2015,45.552,0,0,2015,0,N
PA5001461,8,8,30-Nov-2015,40.659,0,0,2015,0,N
PA5001539,8,1,30-Nov-2015,40.13,0,0,2015,0,N
PA5001539,8,2,30-Nov-2015,40.23,0,0,2015,0,N
PA5001539,8,3,30-Nov-2015,0.505,0,0,2015,0,N
PA5001543,8,1,30-Nov-2015,35.42,0,0,2015,0,N
PA5001543,8,2,30-Nov-2015,35.52,0,0,2015,0,N
PA5001543,8,3,30-Nov-2015,0.650,0,0,2015,0,N
