PriceTypeID,Description
1,value low
2,value high
3,diff midpoint
4,index
5,settlement
6,diff low
7,diff high
8,midpoint
10,open
17,average
18,netback
19,RGV
20,rate
27,margin
29,volume
31,system bid
32,system ask
33,cumulative index
34,cumulative volume
49,diff index
50,netback margin
51,transport costs
