Platts Market Data categories as of 24 November 2015

BF Agriculture: Biofuels
BX Agriculture: Biofuels Non-Platts Data
GRC Agriculture: Grains Corn
GRY Agriculture: Grains Dry Bulk
GRW Agriculture: Grains Wheat
SG Agriculture: Sugar
SY Agriculture: Sugar Freight
SP Agriculture: Sugar Non-Platts Data
BA Bunkers
BL Bunkers: Latin America
CRY Coal: Dry Bulk Freight
CI Coal: International + US Export Prices
MC Coal: Metallurgical Coal
HX Coal: Misc Non-Platts Data
CTA Coal: Thermal Coal Fundamental Data
CO Coal: US Daily Assmts + Weekly Indexes
NJ Crude Netbacks: Caribbean
NW Crude Netbacks: Europe ARA
NP Crude Netbacks: Freight Rates
NQ Crude Netbacks: Italy
NX Crude Netbacks: Singapore
NV Crude Netbacks: US East Coast
NM Crude Netbacks: US Gulf Coast
NK Crude Netbacks: US Midwest
NT Crude Netbacks: US West Coast
PA Crude Postings: Canadian
OS Crude Postings: Official Selling Prices
PC Crude Postings: US
YC Crude Yields: Caribbean
YR Crude Yields: Europe ARA
YI Crude Yields: Italy
YS Crude Yields: Singapore
YN Crude Yields: US East Coast
YH Crude Yields: US Gulf Coast
YU Crude Yields: US Mid-Continent
YL Crude Yields: US West Coast
RC Crudes: Canadian
RW Crudes: Feeders - Weekly
CL Crudes: Latin America
RA Crudes: Russian Domestic Market
RU Crudes: at 14:15 Houston
RI Crudes: at 16:30 London
RP Crudes: at 16:30 Singapore
DC Derivatives: Coal
ULC Derivatives: FtS Americas London Crude
ULF Derivatives: FtS Americas London Fuel Oil
ULO Derivatives: FtS Americas London Fuel Oil Cracks
ULE Derivatives: FtS Americas London Light End Cracks
ULL Derivatives: FtS Americas London Light Ends
ULM Derivatives: FtS Americas London Middle Distillates
ULD Derivatives: FtS Americas London Middle Distillates Cracks
USC Derivatives: FtS Americas Singapore Crude
USF Derivatives: FtS Americas Singapore Fuel Oil
USO Derivatives: FtS Americas Singapore Fuel Oil Cracks
USE Derivatives: FtS Americas Singapore Light End Cracks
USL Derivatives: FtS Americas Singapore Light Ends
USM Derivatives: FtS Americas Singapore Middle Distillates
USD Derivatives: FtS Americas Singapore Middle Distillates Crack
AHC Derivatives: FtS Asia Houston Crude
AHF Derivatives: FtS Asia Houston Fuel Oil
AHO Derivatives: FtS Asia Houston Fuel Oil Cracks
AHE Derivatives: FtS Asia Houston Light End Cracks
AHL Derivatives: FtS Asia Houston Light Ends
AHM Derivatives: FtS Asia Houston Middle Distillates
AHD Derivatives: FtS Asia Houston Middle Distillates Cracks
ALC Derivatives: FtS Asia London Crude
ALF Derivatives: FtS Asia London Fuel Oil
ALO Derivatives: FtS Asia London Fuel Oil Cracks
ALE Derivatives: FtS Asia London Light End Cracks
ALL Derivatives: FtS Asia London Light Ends
ALM Derivatives: FtS Asia London Middle Distillates
ALD Derivatives: FtS Asia London Middle Distillates Cracks
RHC Derivatives: FtS European Houston Crude
RHF Derivatives: FtS European Houston Fuel Oil
RHO Derivatives: FtS European Houston Fuel Oil Cracks
RHE Derivatives: FtS European Houston Light End Cracks
RHL Derivatives: FtS European Houston Light Ends
RHM Derivatives: FtS European Houston Middle Distillates
RHD Derivatives: FtS European Houston Middle Distillates Cracks
RSC Derivatives: FtS European Singapore Crude
RSF Derivatives: FtS European Singapore Fuel Oil
RSO Derivatives: FtS European Singapore Fuel Oil Cracks
RSE Derivatives: FtS European Singapore Light End Cracks
RSL Derivatives: FtS European Singapore Light Ends
RSM Derivatives: FtS European Singapore Middle Distillates
RSD Derivatives: FtS European Singapore Middle Distillates Crack
DI Derivatives: Intraday Indicators
DU Derivatives: Petroleum Americas
DA Derivatives: Petroleum Asia
DR Derivatives: Petroleum EMEA
EE Electricity: European Assessments
ET Electricity: European Exch/Other
PE Electricity: European Fwd Assessments
DP Electricity: N American Fwd Assessments
IK Electricity: North American ISO Prices
IL Electricity: North American ISO Spark Spreads
RE Electricity: Renewable Energy Certs
ES Electricity: US Assessments + Indexes
EU Emissions: Global Carbon
EJ Emissions: Global Sulfur/Nitrous Oxides
FX Foreign Exchange: 3rd Party Rates & Platts MOC Assessments
FG Foreign Exchange: Platts Assessments
XL Futures/Nearbys: DME Oman Crude Oil
TJ Futures/Nearbys: ICE Brent Crude Oil
RF Futures/Nearbys: ICE Coal
IB Futures/Nearbys: ICE Emissions
TK Futures/Nearbys: ICE Gas Oil
ZA Futures/Nearbys: ICE Mideast Sour Crude
TQ Futures/Nearbys: ICE Natural Gas
TW Futures/Nearbys: ICE WTI Crude Oil
CF Futures/Nearbys: NYMEX Brent/Sour Crude
CH Futures/Nearbys: NYMEX CME Heating Oil
CD Futures/Nearbys: NYMEX CME Lt Swt Crude
CU Futures/Nearbys: NYMEX CME RBOB Gasoline
QF Futures/Nearbys: NYMEX Coal
IC Futures/Nearbys: NYMEX Electricity
IA Futures/Nearbys: NYMEX Emissions
TE Futures/Nearbys: NYMEX Heating Oil/ULSD
TB Futures/Nearbys: NYMEX Lt Swt Crude
IF Futures/Nearbys: NYMEX Metals
TH Futures/Nearbys: NYMEX Natural Gas
TG Futures/Nearbys: NYMEX RBOB Gasoline
IX Futures/Nearbys: NYMEX Swap Contracts
IS Futures/Nearbys: NYMEX Uranium
IH Futures/Nearbys: Singapore Exch Fuel Oil
ILO Futures: ICE Intraday Oil Risk Curves - London 16:30
INO Futures: ICE Intraday Oil Risk Curves - New York 14:30
ISO Futures: ICE Intraday Oil Risk Curves - Singapore 16:30
LF LNG: Assessments & Fundamentals
LI LPG: International
LG LPG: US
ODR M2MS: 120-mo Power-Gas historical correlation curves Ercot
SDR M2MS: 120-mo Power-Gas historical correlation curves So East
MDC M2MS: 120-month Gas forward curves MidContinent
EDC M2MS: 120-month Gas forward curves North East
PDC M2MS: 120-month Gas forward curves PFC Hubs Only
RDC M2MS: 120-month Gas forward curves Rockies and West
GDC M2MS: 120-month Gas forward curves US Gulf Coast
UDC M2MS: 120-month Gas forward curves Upper Midwest
UDV M2MS: 120-month Gas historical volatility curves Upper MidW
ODC M2MS: 120-month Power forward curves ERCOT
ADC M2MS: 120-month Power forward curves North East
FDC M2MS: 120-month Power forward curves PFC Power Hubs Only
JDC M2MS: 120-month Power forward curves PJM/MISO
SDC M2MS: 120-month Power forward curves South East
WDC M2MS: 120-month Power forward curves West
ODH M2MS: 120-month Power heat rate curves ERCOT
ADH M2MS: 120-month Power heat rate curves North East
FDH M2MS: 120-month Power heat rate curves PFC Power Hubs Only
JDH M2MS: 120-month Power heat rate curves PJM/MISO
SDH M2MS: 120-month Power heat rate curves South East
WDH M2MS: 120-month Power heat rate curves West
MMC M2MS: 240-month Gas forward curves Mid Continent
EMC M2MS: 240-month Gas forward curves North East
PMC M2MS: 240-month Gas forward curves PFC Hubs Only
RMC M2MS: 240-month Gas forward curves Rockies and West
GMC M2MS: 240-month Gas forward curves US Gulf Coast
UMC M2MS: 240-month Gas forward curves Upper Midwest
OMC M2MS: 240-month Power forward curves ERCOT
AMC M2MS: 240-month Power forward curves North East
FMC M2MS: 240-month Power forward curves PFC Power Hubs Only
JMC M2MS: 240-month Power forward curves PJM/MISO
SMC M2MS: 240-month Power forward curves South East
WMC M2MS: 240-month Power forward curves West
OMH M2MS: 240-month Power heat rate curves ERCOT
FMH M2MS: 240-month Power heat rate curves PFC Power Hubs Only
JMH M2MS: 240-month Power heat rate curves PJM/MISO
SMH M2MS: 240-month Power heat rate curves South East
WMH M2MS: 240-month Power heat rate curves West
FDR M2MS:120-mo Power-Gas hist correlation curves PFC Power Hubs
JDR M2MS:120-mo Power-Gas hist correlation curves PJM/MISO
ADR M2MS:120-mo Power-Gas historical correlation curves N East
WDR M2MS:120-mo Power-Gas historical correlation curves West
MDV M2MS:120-month Gas historical volatility curves Mid Continen
EDV M2MS:120-month Gas historical volatility curves North East
PDV M2MS:120-month Gas historical volatility curves PFC Hubs Onl
RDV M2MS:120-month Gas historical volatility curves Rockies and
GDV M2MS:120-month Gas historical volatility curves US Gulf Coas
ODV M2MS:120-month Power historical volatility curves ERCOT
ADV M2MS:120-month Power historical volatility curves North East
FDV M2MS:120-month Power historical volatility curves PFC Power
JDV M2MS:120-month Power historical volatility curves PJM/MISO
SDV M2MS:120-month Power historical volatility curves South East
WDV M2MS:120-month Power historical volatility curves West
ODS M2MS:120-month Power spark spread curves ERCOT
ADS M2MS:120-month Power spark spread curves North East
FDS M2MS:120-month Power spark spread curves PFC Power Hubs Only
JDS M2MS:120-month Power spark spread curves PJM/MISO
SDS M2MS:120-month Power spark spread curves South East SE
WDS M2MS:120-month Power spark spread curves West
FMR M2MS:240-mo Power-Gas hist correlation curves PFC Power Hubs
OMR M2MS:240-mo Power-Gas historical correlation curves ERCOT
AMR M2MS:240-mo Power-Gas historical correlation curves No East
JMR M2MS:240-mo Power-Gas historical correlation curves PJM/MISO
SMR M2MS:240-mo Power-Gas historical correlation curves So East
WMR M2MS:240-mo Power-Gas historical correlation curves West
MMV M2MS:240-month Gas historical volatility curves Mid Continen
EMV M2MS:240-month Gas historical volatility curves North East
PMV M2MS:240-month Gas historical volatility curves PFC Hubs Onl
RMV M2MS:240-month Gas historical volatility curves Rockies and
GMV M2MS:240-month Gas historical volatility curves US Gulf Coas
UMV M2MS:240-month Gas historical volatility curves Upper Midwes
AMH M2MS:240-month Power heat rate curves North East
OMV M2MS:240-month Power historical volatility curves ERCOT
AMV M2MS:240-month Power historical volatility curves North East
FMV M2MS:240-month Power historical volatility curves PFC Power
JMV M2MS:240-month Power historical volatility curves PJM/MISO
SMV M2MS:240-month Power historical volatility curves South East
WMV M2MS:240-month Power historical volatility curves West
OMS M2MS:240-month Power spark spread curves ERCOT
AMS M2MS:240-month Power spark spread curves North East
FMS M2MS:240-month Power spark spread curves PFC Power Hubs Only
JMS M2MS:240-month Power spark spread curves PJM/MISO
SMS M2MS:240-month Power spark spread curves South East
WMS M2MS:240-month Power spark spread curves West
AD Metals: AISI Steel Demand Data
AP Metals: AISI Steel Production Data
AY Metals: AISI Steel Supply Data
MRY Metals: Dry Bulk Freight
FA Metals: Ferroalloys
ST Metals: Ferrous Scrap
SI Metals: Iron Ore
LM Metals: LME Ferrous
ML Metals: LME Non-ferrous
LT Metals: Light
MM Metals: Major
MI Metals: Minor
SX Metals: Misc Non-Platts Data - Ferrous
MX Metals: Misc Non-Platts Data - Non-Ferrous
PM Metals: Precious
SS Metals: Steel Americas
SQ Metals: Steel Asia
SR Metals: Steel EMEA
MF Metals: Steel Mill Economics/Metals Spreads
EG Natural Gas: European Assessments
EH Natural Gas: European Exch/Other
GF Natural Gas: European Fwd Assessments
GD Natural Gas: N American Daily Assmts
GN Natural Gas: N American Fwd Assmts
GM Natural Gas: US Monthly Assessments
PP Oil Product Postings: Caribbean
GA Oil Product Postings: USAC/USGC Resids
AG Oil Products: Arab Gulf FOB
PU Oil Products: Asphalt
CC Oil Products: Caribbean Cargoes
WC Oil Products: Chicago Pipeline
EB Oil Products: European Bulk
FS Oil Products: Feedstocks
PL Oil Products: Latin America
LU Oil Products: Lubricants
PN Oil Products: NY Harbor
PZ Oil Products: NY Harbor Fuel Oil
CJ Oil Products: North Asia
RM Oil Products: Russian Domestic Market
RN Oil Products: Russian Netbacks
CS Oil Products: Singapore
CX Oil Products: Singapore Fuel Oil
PS Oil Products: South China
PG Oil Products: US Group 3
UG Oil Products: US Gulf Coast
UZ Oil Products: US Gulf Coast Fuel Oil
UW Oil Products: US West Coast
UY Oil Products: US West Coast Fuel Oil
OX Oil: Misc Non-Platts Data
FK Oil: Platts Futures at MOC Assessments
HF Petchems: Aromatics East Asia
AE Petchems: Aromatics Europe
AL Petchems: Aromatics Latin America
AU Petchems: Aromatics US
IM Petchems: Intermediates
TA Petchems: Liquid Chemical Tanker Rates
MPA Petchems: M2M-Benzene Asia
MPR Petchems: M2M-Benzene Europe
MPU Petchems: M2M-Benzene North America
PX Petchems: Misc Non-Platts  Data
HO Petchems: Olefins
PFA Petchems: PFC-Petrochemicals Asia
PFR Petchems: PFC-Petrochemicals Europe
PFU Petchems: PFC-Petrochemicals North America
HP Petchems: Polymers
HS Petchems: Solvents
IN Platts Indexes
ID Platts Intraday Indications
MA Platts Monthly Averages
AM Racks/PSTR: PADD 1 - Mid-Atlantic Area
NE Racks/PSTR: PADD 1 - New England
NY Racks/PSTR: PADD 1 - New York Area
SA Racks/PSTR: PADD 1 - South Atlantic
MW Racks/PSTR: PADD 2 - Lower East Midwest
WO Racks/PSTR: PADD 2 - Michigan/Ohio Area
NA Racks/PSTR: PADD 2 - Northwest Midwest
SM Racks/PSTR: PADD 2 - Southwest Midwest
NI Racks/PSTR: PADD 2 - Wisc/N Ill/N Ind
AA Racks/PSTR: PADD 3 - Inland
GC Racks/PSTR: PADD 3 - US Gulf Coast
NR Racks/PSTR: PADD 4 - Rockies
NB Racks/PSTR: PADD 5 - Northern
SB Racks/PSTR: PADD 5 - Southern
PR Racks: Canadian
SV Shale Value Chain
EM Spark Spreads: Europe
EK Spark Spreads: N America
SK Spark Spreads: N American Fwd
IG Statistics: Baker Hughes Rig Counts
CM Statistics: CFTC/ICE Bank Pos & COT Reports
AO Statistics: EIA PADD 1
AT Statistics: EIA PADD 2
AH Statistics: EIA PADD 3
AF Statistics: EIA PADD 4
AI Statistics: EIA PADD 5
AS Statistics: EIA US/Reg Totals
IP Statistics: IE Singapore Petchems
IO Statistics: IE Singapore Petroleum
JI Statistics: Japanese Govt LPG/Oil
GS Statistics: N Amer Natgas Storage
TC Tankers: Clean
TD Tankers: Dirty
